<?xml version="1.0" encoding="UTF-8" standalone="no"?>
<svg
   xmlns:dc="http://purl.org/dc/elements/1.1/"
   xmlns:cc="http://creativecommons.org/ns#"
   xmlns:rdf="http://www.w3.org/1999/02/22-rdf-syntax-ns#"
   xmlns:svg="http://www.w3.org/2000/svg"
   xmlns="http://www.w3.org/2000/svg"
   xmlns:sodipodi="http://sodipodi.sourceforge.net/DTD/sodipodi-0.dtd"
   xmlns:inkscape="http://www.inkscape.org/namespaces/inkscape"
   width="793.70081"
   height="1122.5197"
   viewBox="0 0 210 297"
   version="1.1"
   id="svg8"
   sodipodi:docname="logo.svg"
   inkscape:version="1.0 (4035a4fb49, 2020-05-01)">
  <defs
     id="defs2" />
  <sodipodi:namedview
     id="base"
     pagecolor="#ffffff"
     bordercolor="#666666"
     borderopacity="1.0"
     inkscape:pageopacity="0.0"
     inkscape:pageshadow="2"
     inkscape:zoom="0.5"
     inkscape:cx="76.454068"
     inkscape:cy="609.3212"
     inkscape:document-units="mm"
     inkscape:current-layer="g879"
     inkscape:document-rotation="0"
     showgrid="false"
     showborder="false"
     units="px"
     showguides="false"
     inkscape:window-width="1920"
     inkscape:window-height="1017"
     inkscape:window-x="-8"
     inkscape:window-y="-8"
     inkscape:window-maximized="1" />
  <metadata
     id="metadata5">
    <rdf:RDF>
      <cc:Work
         rdf:about="">
        <dc:format>image/svg+xml</dc:format>
        <dc:type
           rdf:resource="http://purl.org/dc/dcmitype/StillImage" />
        <dc:title />
      </cc:Work>
    </rdf:RDF>
  </metadata>
  <g
     inkscape:label="Layer 1"
     inkscape:groupmode="layer"
     id="layer1"
     style="opacity:0.997">
    <g
       inkscape:export-ydpi="131.07199"
       inkscape:export-xdpi="131.07199"
       id="g886">
      <g
         inkscape:export-ydpi="131.07201"
         inkscape:export-xdpi="131.07201"
         id="g879">
        <g
           inkscape:export-ydpi="131.07201"
           inkscape:export-xdpi="131.07201"
           style="fill:#191924;fill-opacity:1"
           id="g1009">
          <g
             style="fill:#191924;fill-opacity:1"
             id="g1024">
            <g
               style="fill:#191924;fill-opacity:1"
               id="g1039"
               inkscape:export-xdpi="131.07199"
               inkscape:export-ydpi="131.07199">
              <g
                 style="fill:#191924;fill-opacity:1"
                 id="g1054"
                 inkscape:export-xdpi="131.07199"
                 inkscape:export-ydpi="131.07199">
                <rect
                   style="fill:#191924;stroke-width:5.00116;stroke-linecap:round;stroke-linejoin:round;fill-opacity:1"
                   id="rect952"
                   width="198.43752"
                   height="198.4375"
                   x="-89.34494"
                   y="90.278931" />
              </g>
            </g>
          </g>
        </g>
        <path
           style="fill:#ffe22c;fill-opacity:1;stroke-width:0.281361"
           d="m 57.700007,230.00186 c -3.807438,-0.38122 -8.683706,-1.56352 -11.808763,-2.86315 -1.614318,-0.67136 -2.935115,-1.35276 -2.935115,-1.51424 0,-0.32184 0.235442,-0.26498 2.457306,0.59345 2.896683,1.11914 5.490597,1.53697 10.576653,1.7037 5.254969,0.17227 6.891445,-0.01 10.173996,-1.12932 6.027856,-2.05657 9.875446,-6.02752 10.630821,-10.97162 0.778169,-5.09332 0.125353,-8.25269 -2.206248,-10.6772 -0.754367,-0.78444 -1.256361,-1.50186 -1.115535,-1.5943 0.449153,-0.29478 2.71073,1.45961 3.843766,2.98175 2.480252,4.17783 2.662458,9.54541 1.258125,13.35426 -2.538913,6.82799 -11.302539,11.07512 -20.875006,10.11667 z m -2.320797,-2.4864 c -5.062068,-0.36353 -9.217775,-1.54557 -13.680626,-3.89128 -5.575459,-2.9305 -7.848269,-5.68582 -11.857342,-14.37456 -0.971037,-2.1045 -1.826955,-3.82591 -1.902042,-3.82537 -0.07507,5.8e-4 -1.092982,1.2005 -2.261994,2.66659 -1.169034,1.46608 -2.666743,3.28931 -3.32827,4.05162 l -1.202764,1.38601 -3.416913,-0.0813 -3.416902,-0.0813 1.661308,-2.0296 c 0.913724,-1.11627 3.429691,-4.14495 5.591031,-6.73039 l 3.929701,-4.7008 -3.009643,-6.38695 c -1.655302,-3.51281 -3.009632,-6.58378 -3.009632,-6.82437 0,-0.35898 0.461032,-0.43744 2.570331,-0.43744 h 2.570331 l 0.940967,1.81214 c 0.517544,0.99667 1.541762,3.02689 2.276042,4.51158 l 1.335065,2.69946 0.819109,-0.98554 c 0.450501,-0.54204 2.146788,-2.57225 3.769522,-4.51158 l 2.950413,-3.52606 h 3.108499 c 1.709667,0 3.166129,0.0991 3.236581,0.22009 0.07046,0.12104 -0.522202,1.00174 -1.317005,1.95711 -1.20135,1.44402 -8.318747,10.15839 -9.622766,11.78186 -0.337147,0.41974 -0.0812,1.09593 2.140235,5.65385 3.975047,8.15608 4.96285,9.60949 9.354032,13.76297 4.457569,4.21628 11.061038,7.21595 15.885198,7.21595 1.436332,0 1.940397,0.33217 1.052864,0.69383 -0.427225,0.1741 -2.521161,0.16332 -5.16533,-0.0266 z m -80.677781,-6.68354 c 0.0022,-0.1196 0.233557,-1.00031 0.514115,-1.95711 l 0.510103,-1.73965 1.556677,-0.0877 c 2.043647,-0.1151 2.846648,0.51211 1.918064,1.49821 -0.255211,0.271 -0.307077,0.50575 -0.13652,0.6177 0.461097,0.30262 0.307164,1.2675 -0.252997,1.58585 -0.602505,0.34242 -4.115546,0.41311 -4.109442,0.0827 z m 3.681954,-0.94232 c 0,-0.69275 -2.418481,-0.60782 -2.54493,0.0894 -0.08285,0.45672 0.07506,0.51276 1.224933,0.4349 0.953898,-0.0645 1.319997,-0.20999 1.319997,-0.52428 z m -0.118571,-1.4599 c 0.884641,-0.50276 0.593815,-0.85963 -0.700539,-0.85963 -1.046639,0 -1.228658,0.0859 -1.228658,0.57989 0,0.65532 1.010509,0.80184 1.929197,0.27974 z m 2.614154,0.59008 c 1.116214,-1.44084 1.754542,-2.02959 2.200451,-2.02959 0.345475,0 0.632509,0.16309 0.637857,0.36243 0.0055,0.19933 0.178568,1.11264 0.384926,2.02959 0.330166,1.46699 0.325925,1.66716 -0.03529,1.66716 -0.225777,0 -0.474752,-0.26094 -0.553291,-0.57988 -0.115173,-0.46773 -0.372433,-0.57989 -1.330013,-0.57989 -0.907763,0 -1.255989,0.13649 -1.479453,0.57989 -0.160738,0.31894 -0.540929,0.57988 -0.844883,0.57988 -0.457701,0 -0.282563,-0.34861 1.019681,-2.02959 z m 2.278333,-0.0724 c -0.0022,-0.19933 -0.105311,-0.53169 -0.228867,-0.73857 -0.184134,-0.30824 -0.274289,-0.30824 -0.499386,0 -0.670097,0.91765 -0.664475,1.101 0.03375,1.101 0.384279,0 0.696813,-0.16308 0.694512,-0.36243 z m 2.341037,0.72486 c 0.219716,-0.75747 0.474116,-1.67599 0.565345,-2.04117 0.157001,-0.62851 0.277061,-0.65946 2.249545,-0.57988 2.0099941,0.0811 2.0865715,0.11039 2.165264,0.82842 0.061915,0.56531 -0.089311,0.82707 -0.629167,1.08825 -0.670721,0.32452 -0.686852,0.38013 -0.286354,0.98732 0.8945794,1.35629 0.03934,1.57016 -0.897605,0.22446 -0.438424,-0.62972 -0.831339,-0.86983 -1.423357,-0.86983 -0.690194,0 -0.843305,0.1357 -0.981579,0.86983 -0.110296,0.58564 -0.326813,0.86982 -0.662689,0.86982 -0.469206,0 -0.475124,-0.082 -0.09939,-1.37722 z m 3.784108,-1.1183 c 0.237535,-0.0968 0.431871,-0.35774 0.431871,-0.57988 0,-0.29138 -0.380301,-0.4039 -1.365167,-0.4039 -0.75085,0 -1.365179,0.0546 -1.365179,0.12126 0,0.0667 -0.07463,0.32764 -0.165724,0.57988 -0.134208,0.37141 0.0434,0.45864 0.933285,0.45864 0.604467,0 1.293379,-0.0792 1.530914,-0.176 z m 1.689427,1.75164 c 0.096653,-0.40914 0.3271418,-1.28984 0.5120871,-1.95711 l 0.3362702,-1.21321 1.6340871,-0.0851 c 1.7854448,-0.093 2.5085911,0.35475 2.1216273,1.31368 -0.1134416,0.2811 -0.180288,0.86057 -0.1485414,1.2877 0.078243,1.05278 -0.6213645,1.39795 -2.8334646,1.39795 -1.7936636,0 -1.7974662,-0.002 -1.6220657,-0.74388 z m 3.6094524,-0.50526 c 0.08164,-0.45648 -0.076599,-0.51272 -1.223749,-0.4349 -1.0143335,0.0688 -1.3391302,0.21002 -1.4113352,0.61366 -0.08164,0.45648 0.076599,0.51272 1.223738,0.4349 1.0143225,-0.0688 1.3391302,-0.21003 1.4113462,-0.61366 z m -0.00767,-1.41831 c 0.5893768,-0.62588 0.346867,-0.84666 -0.8304073,-0.75602 -0.844752,0.065 -1.1825673,0.22642 -1.2486794,0.59655 -0.071778,0.40198 0.1007079,0.5074 0.8304073,0.5074 0.5065641,0 1.0684681,-0.15658 1.2486794,-0.34793 z m 1.4919564,2.30502 c 0.071778,-0.19933 0.3531571,-1.11264 0.6251451,-2.02958 l 0.4945317,-1.66716 h 2.15054656 c 1.36414832,0 2.08881784,0.10597 1.98177594,0.28994 -0.092818,0.15946 -0.89868924,0.28993 -1.79083638,0.28993 -0.89215802,0 -1.62209852,0.0546 -1.62209852,0.12126 0,0.0667 -0.074627,0.32764 -0.1657243,0.57988 -0.1389856,0.38461 0.081311,0.45864 1.36516741,0.45864 0.84200136,0 1.53090265,0.13047 1.53090265,0.28993 0,0.16045 -0.71746989,0.28994 -1.60636234,0.28994 -1.37673942,0 -1.62677782,0.0829 -1.74917242,0.57989 -0.1308874,0.53155 -0.00877,0.57989 1.4698532,0.57989 0.89307855,0 1.6126415,0.12937 1.6126415,0.28993 0,0.16945 -0.91985004,0.28994 -2.2134809,0.28994 -1.6584257,0 -2.1807479,-0.0908 -2.0828892,-0.36243 z m 5.3885194,0.0599 c 0,-0.16637 0.2150152,-1.07951 0.4778091,-2.02919 l 0.4778092,-1.72669 1.969897,-3e-4 c 1.6006968,-2.8e-4 2.0159552,0.0947 2.2156396,0.507 0.3400837,0.70218 0.1098363,1.22104 -0.6840576,1.54157 l -0.6733074,0.27183 0.5914589,0.79671 c 0.5455213,0.73481 0.5537291,0.80479 0.1056392,0.90072 -0.2671992,0.0572 -0.6433251,-0.1385 -0.8358427,-0.43492 -0.7023144,-1.08143 -0.9510486,-1.26389 -1.7228942,-1.26389 -0.652048,0 -0.8174325,0.14884 -0.9665548,0.86983 -0.1650119,0.79786 -0.9556182,1.26722 -0.9556182,0.56733 z m 4.3327521,-2.40614 c 0.4469721,-0.57191 0.1005983,-0.77067 -1.3430314,-0.77067 -1.0582001,0 -1.3132903,0.10345 -1.4306221,0.57989 -0.128104,0.52021 -0.00877,0.57989 1.1633681,0.57989 0.7596269,0 1.4334383,-0.16282 1.6102854,-0.38911 z m 1.7286254,2.3607 c -0.1802113,-0.19135 -0.3276459,-0.51754 -0.3276459,-0.72485 0,-0.52985 0.7266749,-0.47103 0.9239046,0.0748 0.1196989,0.33123 0.4677493,0.42791 1.304918,0.36243 1.5129856,-0.11832 1.6393136,-0.68947 0.2502575,-1.13141 -1.5081858,-0.47984 -2.0550439,-1.13433 -1.5547919,-1.86082 0.5418501,-0.78691 3.07924,-0.77274 3.627994,0.0203 0.343897,0.49695 0.335777,0.57504 -0.06904,0.66417 -0.252328,0.0556 -0.540305,-0.0391 -0.639949,-0.21028 -0.09972,-0.1712 -0.421527,-0.33519 -0.715301,-0.36441 -1.8684759,-0.18581 -1.9305773,0.53192 -0.104324,1.206 1.333936,0.49237 1.718259,1.3051 0.912892,1.93048 -0.614669,0.47728 -3.1686826,0.5011 -3.6088715,0.0336 z m 4.6873993,-0.0145 c 0.08033,-0.19934 0.356368,-1.11264 0.613584,-2.02959 0.283461,-1.0105 0.619885,-1.66716 0.854143,-1.66716 0.287385,0 0.340347,0.22304 0.206577,0.86983 l -0.179904,0.86982 h 1.360159 c 1.265808,0 1.379962,-0.0604 1.645703,-0.86982 0.157045,-0.47842 0.476231,-0.86983 0.709295,-0.86983 0.523758,0 0.532853,-0.14622 -0.133287,2.14402 -0.370724,1.27459 -0.697602,1.91516 -0.977316,1.91516 -0.324928,0 -0.379457,-0.19733 -0.240362,-0.86983 l 0.179893,-0.86982 h -1.393692 c -1.330122,0 -1.401166,0.0397 -1.55751,0.86982 -0.115096,0.61114 -0.322846,0.86983 -0.698522,0.86983 -0.323548,0 -0.477064,-0.14311 -0.388761,-0.36243 z m 6.50001,-0.30862 c -0.740022,-0.8365 -0.747474,-1.36264 -0.03288,-2.32724 1.118197,-1.50958 3.681482,-1.59437 4.693284,-0.15523 0.442008,0.62867 0.465514,0.83985 0.170119,1.52833 -0.714555,1.66538 -3.682578,2.25165 -4.830451,0.95414 z m 3.501863,-0.48872 c 0.735518,-0.78107 0.687958,-1.62754 -0.123162,-2.19192 -1.518366,-1.05648 -3.794595,1.10496 -2.552578,2.42388 0.519144,0.5513 2.064303,0.41735 2.67574,-0.23196 z m 1.911247,0.9899 c 0,-0.0935 0.211279,-1.01188 0.469514,-2.04101 l 0.469513,-1.87114 1.890931,0.0839 c 2.213667,0.0982 2.841771,0.62999 1.96261,1.66161 -0.401429,0.47104 -0.840478,0.59685 -2.082846,0.59685 -1.527111,0 -1.57958,0.026 -1.754104,0.86983 -0.09895,0.47841 -0.354439,0.86982 -0.567766,0.86982 -0.213317,0 -0.387852,-0.0764 -0.387852,-0.16987 z m 4.027253,-2.50771 c 0.648849,-0.55673 0.335964,-0.80172 -1.023878,-0.80172 -0.750838,0 -1.365167,0.11981 -1.365167,0.26623 0,0.14643 -0.06422,0.44371 -0.142537,0.66064 -0.110055,0.30457 0.123151,0.36859 1.02389,0.28104 0.641528,-0.0623 1.319986,-0.24514 1.507692,-0.40619 z m -52.730264,-3.93315 c -0.0743,-0.1276 0.165155,-1.7259 0.532032,-3.55178 0.366888,-1.82588 1.094637,-5.66831 1.617233,-8.53872 0.522585,-2.87043 1.128367,-6.13227 1.346187,-7.24855 0.21781,-1.11627 0.666842,-3.59527 0.997852,-5.50889 0.330999,-1.91361 0.737919,-3.57515 0.904256,-3.69232 0.474708,-0.33433 4.752318,-0.26138 4.953602,0.0845 0.172409,0.29623 -0.385013,3.64978 -2.069608,12.45105 -0.913625,4.77329 -1.888629,10.40535 -1.894799,10.9453 -0.0033,0.27957 1.43162,0.36242 6.275648,0.36242 5.1514562,0 6.2798012,0.0718 6.2798012,0.39935 0,0.21964 -0.1976242,1.32868 -0.4391698,2.46451 l -0.4391807,2.06515 H -15.48755 c -4.930424,0 -9.02517,-0.10443 -9.099436,-0.23201 z m 25.12657901,-0.652 c -1.77517681,-0.31632 -4.08703141,-1.55187 -4.95623151,-2.64882 -2.0263,-2.55723 -2.3613867,-5.16139 -1.2802616,-9.94946 0.3240734,-1.4352 1.0988449,-5.08846 1.7217326,-8.11836 0.6228767,-3.02988 1.2361868,-5.80245 1.362899,-6.16125 0.2155303,-0.61027 0.3894185,-0.65238 2.69445691,-0.65238 2.44336669,0 2.46407809,0.007 2.46407809,0.72161 0,0.39688 -0.6067131,3.6261 -1.3482586,7.17605 -2.5454991,12.18601 -2.4853264,11.80881 -2.05753154,12.89606 0.69433662,1.76469 3.74769294,2.61147 6.49515574,1.80129 1.5494443,-0.4569 2.9471144,-2.11535 3.6512368,-4.33248 0.3285336,-1.03445 1.0388801,-4.16411 1.5785601,-6.9548 0.53967,-2.79069 1.253797,-6.44395 1.586944,-8.11836 l 0.605738,-3.04439 2.432397,-0.0845 c 1.337826,-0.0465 2.528163,0.0187 2.645221,0.14497 0.226708,0.24438 0.172792,0.57889 -1.25212,7.7679 -0.505721,2.55149 -1.118143,5.72491 -1.360938,7.05207 -0.770903,4.21392 -1.923433,7.11607 -3.581103,9.01741 -2.6714326,3.06415 -6.7596694,4.31456 -11.40197499,3.48738 z M 38.964195,213.29597 c 0.09282,-0.43989 0.345234,-1.77833 0.560852,-2.97434 0.215618,-1.19601 0.582889,-3.08787 0.81615,-4.20415 0.233272,-1.11627 0.91882,-4.57383 1.523462,-7.68346 0.604631,-3.10962 1.376685,-6.9586 1.715694,-8.55327 l 0.616368,-2.89942 7.115863,-0.0773 7.115862,-0.0771 0.280141,-1.30002 0.280131,-1.30002 H 37.025606 15.062483 l 0.180255,-0.94232 c 0.09917,-0.51827 0.475563,-2.37752 0.83649,-4.13166 0.627216,-3.04833 1.238707,-6.17336 3.241446,-16.56555 0.495836,-2.57288 0.986247,-4.82355 1.089815,-5.00149 0.13251,-0.22768 2.896443,-0.32355 9.327426,-0.32355 7.840083,0 9.161285,0.0614 9.295066,0.43154 0.132914,0.36782 -0.141046,2.1172 -0.624871,3.99007 -0.120335,0.4658 -0.684551,0.5074 -6.882975,0.5074 h -6.7519 l -0.362768,2.10208 c -0.199531,1.15613 -0.422776,2.46087 -0.496121,2.89941 l -0.133342,0.79733 h 6.447311 c 4.330944,0 6.447312,0.10016 6.447312,0.3052 0,0.16786 -0.193658,1.20935 -0.430348,2.31443 l -0.430349,2.00923 -6.579524,0.0776 -6.579525,0.0776 -0.637605,3.16255 c -0.35068,1.7394 -0.564841,3.23985 -0.475913,3.33432 0.08898,0.0945 9.815843,0.20327 21.615368,0.24174 11.799536,0.0385 21.504458,0.12387 21.566493,0.18975 0.06202,0.0659 -0.436243,2.38293 -1.107293,5.14899 -0.671061,2.76607 -1.296458,5.38801 -1.389791,5.82655 l -0.169681,0.79733 h -6.67895 -6.67895 l -0.165966,0.79735 c -0.09128,0.43853 -0.339338,1.5581 -0.551263,2.48792 -0.701668,3.07863 -1.295877,2.80351 6.055011,2.80351 h 6.440319 l -0.182512,1.23225 c -0.100379,0.67774 -0.300195,1.72153 -0.444068,2.31953 l -0.261578,1.08729 h -6.537115 -6.537105 l -0.141835,0.65236 c -0.07802,0.35881 -0.386646,1.7614 -0.685877,3.11688 -0.299219,1.35548 -0.544896,2.69283 -0.545948,2.9719 -0.0022,0.47599 0.783954,0.50739 12.694204,0.50739 6.982871,0 12.69096,0.0327 12.684659,0.0726 -0.0066,0.0399 -0.233436,1.05103 -0.504734,2.24705 l -0.493272,2.17455 -15.363544,0.075 -15.363566,0.075 z m -83.516451,-21.84914 c -4.562638,-0.64147 -8.145242,-2.45431 -10.971222,-5.55156 -1.055494,-1.15681 -2.197701,-2.68415 -2.538245,-3.39408 -0.817608,-1.70451 -1.643961,-4.28479 -1.643961,-5.13332 0,-1.22497 0.498367,-0.71241 0.960364,0.9877 0.690479,2.54089 1.710566,4.29733 3.547844,6.10886 3.074714,3.03165 5.985961,4.08527 11.327809,4.09969 5.896913,0.0159 11.928506,-1.47294 15.276611,-3.77092 0.942742,-0.64705 1.781533,-1.10483 1.863973,-1.01727 0.08241,0.0876 -0.780602,1.11885 -1.917889,2.2918 -2.299625,2.37175 -6.004119,4.64177 -8.310856,5.09267 -2.252504,0.4403 -5.60153,0.56662 -7.594428,0.28643 z m 8.191048,-4.7439 c 2.731803,-0.96706 4.677263,-3.23837 7.854384,-9.1699 l 2.39367,-4.4689 -5.663039,-0.0786 c -3.114669,-0.0432 -5.805367,-0.0206 -5.979332,0.0503 -0.323383,0.13178 -0.818046,2.21086 -1.869277,7.85666 l -0.593847,3.18936 -2.745085,0.0822 -2.745074,0.0822 1.066704,-5.44613 c 1.306813,-6.67193 3.34611,-17.00881 3.820051,-19.36332 0.192605,-0.9568 0.476461,-1.8355 0.6308,-1.95266 0.154327,-0.11716 4.124005,-0.21502 8.821497,-0.21746 6.584993,-0.003 8.570473,0.0786 8.669975,0.35799 0.07101,0.19933 -0.08646,1.27575 -0.349858,2.39202 l -0.478927,2.02958 -6.180825,0.0778 -6.180824,0.0778 -0.468144,2.24169 c -0.25749,1.23293 -0.572073,2.60049 -0.699114,3.03902 l -0.230949,0.79735 h 6.129079 c 6.855249,0 6.431805,-0.15454 5.834625,2.12926 -0.630142,2.40988 -0.05622,1.52513 3.356215,-5.17365 0.568632,-1.11627 1.310309,-2.5989 1.648157,-3.29472 0.535264,-1.10242 0.930305,-1.43413 3.07158,-2.57924 2.237064,-1.19632 6.02778,-2.66419 6.908026,-2.67497 0.219004,-0.002 0.07605,0.38431 -0.37286,1.00928 -0.72445,1.00861 -0.726467,1.02548 -0.408322,3.40682 0.17585,1.31625 0.68283,4.67647 1.1266136,7.46716 0.4437723,2.79068 1.1186577,7.22679 1.4997259,9.85801 0.3810572,2.63122 0.7566352,5.01237 0.8346044,5.29144 0.1280054,0.45819 -0.1097815,0.50739 -2.4520789,0.50739 -2.967497,0 -2.67071,0.31738 -3.185712,-3.40681 l -0.33078,-2.39202 h -4.971102 -4.971092 l -0.646207,1.46512 c -0.874405,1.9825 -2.482455,3.47675 -5.252218,4.88057 -2.593673,1.31456 -6.643369,2.65205 -7.945459,2.62413 -0.682096,-0.0146 -0.467081,-0.15634 1.054419,-0.69494 z M -14.3819,173.18792 c 0,-0.67163 -1.078878,-8.29932 -1.26515,-8.94459 -0.143763,-0.49803 -0.462489,-0.0597 -1.670403,2.29712 -0.449514,0.87707 -1.447301,2.82114 -2.217283,4.32014 -0.770005,1.49902 -1.400005,2.77113 -1.400005,2.82694 0,0.0558 1.47439,0.10147 3.276426,0.10147 3.132893,0 3.276415,-0.0263 3.276415,-0.60107 z m 7.0989108,10.7889 c 0,-0.13754 0.318134,-1.86632 0.7069717,-3.84173 1.5725665,-7.98911 2.8502747,-14.5104 3.5156921,-17.94376 0.3863392,-1.99335 0.7663225,-3.9283 0.8444122,-4.29988 l 0.1419773,-0.6756 6.3373654,0.0968 c 7.0122505,0.10706 7.3369705,0.18526 9.6237305,2.31739 2.936495,2.73792 3.846548,8.79117 2.166271,14.40911 -1.641856,5.48949 -5.484548,9.15488 -10.3672695,9.88894 -2.352598,0.35368 -12.9691507,0.39358 -12.9691507,0.0488 z M 6.897922,178.42594 c 1.4987944,-0.89393 3.370229,-3.69947 4.019593,-6.02592 0.690468,-2.47367 0.63927,-6.22494 -0.108708,-7.97022 -0.846932,-1.97603 -2.0562049,-2.51388 -5.6686708,-2.52125 l -2.7303458,-0.005 -0.5996887,3.11607 c -1.89728657,9.85847 -2.57853883,13.32132 -2.71528899,13.80206 -0.14441011,0.50761 0.0375874,0.53207 3.21916819,0.43279 2.9826087,-0.093 3.5122292,-0.18873 4.5839849,-0.82796 z m -26.156057,-18.81318 c 0.05402,-0.16743 1.228878,-1.59648 2.610888,-3.17568 2.163839,-2.47255 2.852708,-3.05769 4.960747,-4.21386 3.4322329,-1.88245 8.6325085,-3.37088 11.75374122,-3.36417 5.73712878,0.0123 11.08063078,2.32472 14.49255678,6.27166 1.49131,1.72515 2.975661,4.1612 2.535527,4.1612 -0.126372,0 -0.867293,-0.76911 -1.646492,-1.70915 -1.860608,-2.24464 -4.244284,-3.9011 -6.9893358,-4.85702 -4.0327434,-1.40433 -9.5481285,-1.0244 -15.0751294,1.03847 -0.8605759,0.32121 -1.7713085,0.78257 -2.0238454,1.02526 -0.2525368,0.24269 -2.0471974,1.10076 -3.9881544,1.9068 -1.940944,0.80606 -4.24892,1.86051 -5.128815,2.34323 -0.879907,0.48273 -1.555658,0.74069 -1.501688,0.57326 z"
           id="path852"
           sodipodi:nodetypes="ssssscsssccscssssscccsscssscsscsscssssssssccsscssssssssssssssssscssssssssssssssssssssssssssssssssssscsssssssssssssssssscssssssssssssssscssscssssssssssssssssssssssssssssscsssssscsssssssssssssssscssssssssssssssssssssscssscssssssssssssssscsssssssssssscccccccsssssssscsscssscccsssssscccssscsscccsscscscccssssssssssssscscssscccssscsscccsscssssscssssssscccsssccsssssssssssscsssssssssccssssssssssssssssss" />
      </g>
    </g>
  </g>
</svg>
