{
  "project_info": {
    "project_number": "328252660508",
    "firebase_url": "https://slamart.firebaseio.com",
    "project_id": "slamart",
    "storage_bucket": "slamart.appspot.com"
  },
  "client": [
    {
      "client_info": {
        "mobilesdk_app_id": "1:328252660508:android:f750fba2d4b5f7a4bb78d9",
        "android_client_info": {
          "package_name": "io.slamart.fadeluxe"
        }
      },
      "oauth_client": [
        {
          "client_id": "328252660508-9hkrjv2fluuig1dqqrnorg5tf1jhdqf0.apps.googleusercontent.com",
          "client_type": 3
        }
      ],
      "api_key": [
        {
          "current_key": "AIzaSyClXc-vBt4PHGq08rYFStD6RutEv3j6bhE"
        }
      ],
      "services": {
        "appinvite_service": {
          "other_platform_oauth_client": [
            {
              "client_id": "328252660508-9hkrjv2fluuig1dqqrnorg5tf1jhdqf0.apps.googleusercontent.com",
              "client_type": 3
            },
            {
              "client_id": "328252660508-9o4ereds4at1llvki1kahj1v8mk1cluf.apps.googleusercontent.com",
              "client_type": 2,
              "ios_info": {
                "bundle_id": "io.slamart.madenssalon"
              }
            }
          ]
        }
      }
    },
    {
      "client_info": {
        "mobilesdk_app_id": "1:328252660508:android:17a16d057b465b45bb78d9",
        "android_client_info": {
          "package_name": "io.slamart.madenssalon"
        }
      },
      "oauth_client": [
        {
          "client_id": "328252660508-9hkrjv2fluuig1dqqrnorg5tf1jhdqf0.apps.googleusercontent.com",
          "client_type": 3
        }
      ],
      "api_key": [
        {
          "current_key": "AIzaSyClXc-vBt4PHGq08rYFStD6RutEv3j6bhE"
        }
      ],
      "services": {
        "appinvite_service": {
          "other_platform_oauth_client": [
            {
              "client_id": "328252660508-9hkrjv2fluuig1dqqrnorg5tf1jhdqf0.apps.googleusercontent.com",
              "client_type": 3
            },
            {
              "client_id": "328252660508-9o4ereds4at1llvki1kahj1v8mk1cluf.apps.googleusercontent.com",
              "client_type": 2,
              "ios_info": {
                "bundle_id": "io.slamart.madenssalon"
              }
            }
          ]
        }
      }
    }
  ],
  "configuration_version": "1"
}