<?xml version="1.0" encoding="UTF-8" standalone="no"?>
<!-- Created with Inkscape (http://www.inkscape.org/) -->

<svg
   width="210mm"
   height="297mm"
   viewBox="0 0 210 297"
   version="1.1"
   id="svg5"
   sodipodi:docname="Logo.svg"
   inkscape:version="1.1 (c68e22c387, 2021-05-23)"
   xmlns:inkscape="http://www.inkscape.org/namespaces/inkscape"
   xmlns:sodipodi="http://sodipodi.sourceforge.net/DTD/sodipodi-0.dtd"
   xmlns="http://www.w3.org/2000/svg"
   xmlns:svg="http://www.w3.org/2000/svg">
  <sodipodi:namedview
     id="namedview7"
     pagecolor="#505050"
     bordercolor="#eeeeee"
     borderopacity="1"
     inkscape:pageshadow="0"
     inkscape:pageopacity="0"
     inkscape:pagecheckerboard="0"
     inkscape:document-units="mm"
     showgrid="false"
     inkscape:zoom="0.028284271"
     inkscape:cx="229.80971"
     inkscape:cy="17.67767"
     inkscape:window-width="1920"
     inkscape:window-height="1017"
     inkscape:window-x="-8"
     inkscape:window-y="-8"
     inkscape:window-maximized="1"
     inkscape:current-layer="layer1"
     showborder="false" />
  <defs
     id="defs2">
    <rect
       x="-6875"
       y="3875"
       width="1325"
       height="843.75"
       id="rect2314" />
    <clipPath
       clipPathUnits="userSpaceOnUse"
       id="clipPath93945">
      <rect
         style="fill:none;fill-opacity:1;stroke-width:0.213026"
         id="rect93947"
         width="102.95914"
         height="317.27042"
         x="-1398.6089"
         y="55.536976" />
    </clipPath>
    <clipPath
       clipPathUnits="userSpaceOnUse"
       id="clipPath93945-9">
      <rect
         style="fill:none;fill-opacity:1;stroke-width:0.213026"
         id="rect93947-4"
         width="102.95914"
         height="317.27042"
         x="-1398.6089"
         y="55.536976" />
    </clipPath>
    <clipPath
       clipPathUnits="userSpaceOnUse"
       id="clipPath93945-0">
      <rect
         style="fill:none;fill-opacity:1;stroke-width:0.213026"
         id="rect93947-5"
         width="102.95914"
         height="317.27042"
         x="-1398.6089"
         y="55.536976" />
    </clipPath>
    <clipPath
       clipPathUnits="userSpaceOnUse"
       id="clipPath93945-9-9">
      <rect
         style="fill:none;fill-opacity:1;stroke-width:0.213026"
         id="rect93947-4-7"
         width="102.95914"
         height="317.27042"
         x="-1398.6089"
         y="55.536976" />
    </clipPath>
    <clipPath
       clipPathUnits="userSpaceOnUse"
       id="clipPath93945-0-6">
      <rect
         style="fill:none;fill-opacity:1;stroke-width:0.213026"
         id="rect93947-5-6"
         width="102.95914"
         height="317.27042"
         x="-1398.6089"
         y="55.536976" />
    </clipPath>
    <clipPath
       clipPathUnits="userSpaceOnUse"
       id="clipPath93945-9-9-3">
      <rect
         style="fill:none;fill-opacity:1;stroke-width:0.213026"
         id="rect93947-4-7-5"
         width="102.95914"
         height="317.27042"
         x="-1398.6089"
         y="55.536976" />
    </clipPath>
    <clipPath
       clipPathUnits="userSpaceOnUse"
       id="clipPath93945-0-7">
      <rect
         style="fill:none;fill-opacity:1;stroke-width:0.213026"
         id="rect93947-5-0"
         width="102.95914"
         height="317.27042"
         x="-1398.6089"
         y="55.536976" />
    </clipPath>
    <clipPath
       clipPathUnits="userSpaceOnUse"
       id="clipPath93945-9-9-4">
      <rect
         style="fill:none;fill-opacity:1;stroke-width:0.213026"
         id="rect93947-4-7-7"
         width="102.95914"
         height="317.27042"
         x="-1398.6089"
         y="55.536976" />
    </clipPath>
  </defs>
  <g
     inkscape:label="Capa 1"
     inkscape:groupmode="layer"
     id="layer1">
    <text
       xml:space="preserve"
       transform="scale(0.26458333)"
       id="text2312"
       style="font-style:normal;font-weight:normal;font-size:40px;line-height:1.25;font-family:sans-serif;white-space:pre;shape-inside:url(#rect2314);fill:#000000;fill-opacity:1;stroke:none" />
    <g
       id="g64486"
       inkscape:export-filename="E:\Trabajo\Aplicaciones\Art Beauty Equilibrium Barbershop Salon Makeup Studio\Citas\fichaPS\LogoCool.png"
       inkscape:export-xdpi="48.000008"
       inkscape:export-ydpi="48.000008">
      <path
         style="fill:#000000;stroke-width:0.281059"
         d="m -204.69166,-133.07381 c -0.72277,-1.50705 -0.92227,-1.71213 -1.80904,-1.85955 -1.36225,-0.22648 -2.98544,-1.87611 -3.58235,-3.6407 -1.0624,-3.14067 -1.2594,-9.90771 -0.41843,-14.37345 0.38416,-2.03999 1.62434,-4.06128 2.89207,-4.71356 1.19135,-0.61298 4.31919,-0.6937 5.58481,-0.14412 1.31237,0.56988 2.46441,2.06115 3.04038,3.93567 0.68379,2.22545 0.77405,11.99014 0.13205,14.2875 -0.47291,1.69234 -1.61644,3.58008 -2.44719,4.03985 -0.72266,0.39995 -0.72632,0.75058 -0.0208,1.98996 0.30735,0.5399 0.65229,1.24953 0.76653,1.57695 0.19923,0.57103 0.13564,0.59532 -1.55899,0.59532 h -1.7667 l -0.81235,-1.69387 z m 1.44277,-5.00555 c 0.99256,-0.8796 1.37105,-3.24868 1.36371,-8.53579 -0.0102,-7.37845 -0.96565,-9.61159 -3.71241,-8.67751 -1.39186,0.47332 -2.12175,4.7032 -1.84399,10.68631 0.18842,4.05894 0.74164,6.40825 1.61527,6.85948 0.857,0.44264 1.84685,0.31495 2.57742,-0.33249 z m -17.89991,2.92911 c -0.0788,-0.1819 -0.1081,-5.39088 -0.0652,-11.57552 l 0.078,-11.24479 4.41966,-0.0733 4.41965,-0.0733 -0.0905,1.39622 -0.0905,1.39622 -2.6124,0.0764 -2.6124,0.0764 v 3.41815 3.41815 l 2.31384,0.0773 2.31385,0.0773 0.0909,1.25677 0.0909,1.25677 h -2.40484 -2.40485 v 3.96875 3.96875 h 2.68705 2.68705 v 1.45521 1.4552 h -4.33851 c -3.19538,0 -4.37623,-0.0871 -4.48171,-0.33073 z m 27.0279,-0.26458 c -2.30921,-1.39069 -2.73149,-3.79465 -2.61433,-14.88281 l 0.081,-7.67292 1.70618,-0.0791 1.70617,-0.0791 0.0852,9.77504 c 0.08,9.18206 0.11969,9.8088 0.65394,10.33167 0.31281,0.30615 0.93017,0.55664 1.37189,0.55664 0.44173,0 1.05907,-0.25049 1.37189,-0.55664 0.53422,-0.52284 0.57393,-1.14937 0.6539,-10.31875 l 0.0852,-9.76211 h 1.64501 1.64501 l -0.088,9.98802 c -0.0867,9.82959 -0.099,10.00602 -0.77189,11.12288 -0.96977,1.60946 -2.15033,2.17023 -4.57149,2.17144 -1.55343,7.7e-4 -2.1806,-0.12516 -2.95963,-0.59432 z m 10.7527,-11.04635 v -11.64167 h 1.64209 1.64208 v 11.64167 11.64166 h -1.64208 -1.64209 z m 5.37409,0 v -11.64167 h 1.64209 1.64209 v 10.18646 10.18646 h 2.53775 2.53777 v 1.45521 1.4552 h -4.17984 -4.17986 z m 9.85251,0 v -11.64167 h 1.64208 1.64209 v 11.64167 11.64166 h -1.64209 -1.64208 z m 5.37409,0.006 v -11.69112 l 3.70886,0.0877 c 3.47599,0.0822 3.75897,0.12925 4.50678,0.74918 1.26666,1.05004 1.69938,2.06329 1.85727,4.34892 0.17624,2.55122 -0.23349,4.09084 -1.39535,5.24319 -0.84417,0.83728 -0.84489,0.84108 -0.20926,1.11502 0.35079,0.15118 0.94881,0.81025 1.32894,1.4646 0.6185,1.06469 0.68062,1.4817 0.59107,3.96785 -0.0853,2.36733 -0.20955,2.95072 -0.84042,3.94532 -1.27488,2.00989 -1.90415,2.25861 -5.98697,2.36641 l -3.56092,0.094 v -11.69111 z m 5.96948,8.46119 c 1.43494,-0.68056 1.40464,-6.17983 -0.0398,-7.22406 -0.39815,-0.28783 -1.02253,-0.44491 -1.57758,-0.39688 l -0.91865,0.0795 -0.0826,3.9026 -0.0826,3.90261 h 1.07257 c 0.58992,0 1.32284,-0.1187 1.62871,-0.26377 z m -0.0197,-10.56508 c 0.68678,-0.60862 1.03936,-2.41419 0.85537,-4.38034 -0.17268,-1.84542 -0.57344,-2.25331 -2.21393,-2.25331 h -1.30697 v 3.57187 3.57188 h 1.04497 c 0.63386,0 1.27142,-0.20068 1.62056,-0.5101 z m 6.2913,2.06904 v -11.67022 l 3.35881,0.095 c 2.93861,0.0831 3.48076,0.17204 4.33363,0.71088 1.55287,0.98109 1.96504,1.95751 2.1031,4.98225 0.13854,3.03507 -0.35271,4.88463 -1.56554,5.89436 l -0.70731,0.58887 1.46434,4.93924 c 0.80539,2.71658 1.54569,5.20713 1.64512,5.53455 0.17271,0.56879 0.10133,0.59531 -1.60218,0.59531 h -1.78294 l -1.21795,-4.16718 c -0.66987,-2.29196 -1.33489,-4.58373 -1.47781,-5.09283 -0.14975,-0.5334 -0.47327,-0.96206 -0.76348,-1.01159 -0.45861,-0.0783 -0.50362,0.37696 -0.50362,5.09283 v 5.17877 h -1.64209 -1.64208 z m 5.56465,-1.92017 c 0.70781,-0.53954 0.83831,-0.86705 0.94672,-2.37577 0.23208,-3.22988 -0.35641,-4.40675 -2.20357,-4.40675 h -1.02363 v 3.70416 3.70417 h 0.72975 c 0.40137,0 1.09919,-0.28161 1.55073,-0.62581 z m 6.87538,13.414 c -0.10947,-0.097 -0.19904,-5.33576 -0.19904,-11.64166 v -11.46528 h 1.64208 1.64209 v 11.64167 11.64166 h -1.44305 c -0.79367,0 -1.53261,-0.0794 -1.64208,-0.17639 z m 8.30994,-0.076 c -0.86493,-0.31704 -1.83385,-1.3195 -2.44467,-2.52931 -0.47299,-0.93683 -0.54386,-2.14161 -0.634,-10.77816 l -0.10148,-9.72344 h 1.63386 1.63387 l 0.12397,9.45885 c 0.13349,10.18513 0.22202,10.768 1.68495,11.09339 0.9762,0.21712 2.20056,-0.39956 2.46511,-1.24163 0.11361,-0.36162 0.21995,-4.85444 0.23632,-9.98405 l 0.0298,-9.32656 h 1.64209 1.64208 v 9.07254 c 0,7.19501 -0.0923,9.38662 -0.44609,10.59026 -0.83613,2.84481 -1.92437,3.63108 -4.98782,3.60376 -1.03445,-0.009 -2.14953,-0.11526 -2.47795,-0.23565 z m 10.20082,0.076 c -0.10946,-0.097 -0.19904,-5.33576 -0.19904,-11.64166 v -11.46528 h 2.51153 2.51152 l 0.17052,0.99219 c 0.0938,0.5457 0.64675,4.56406 1.22879,8.92969 0.58205,4.36562 1.10606,8.05656 1.16448,8.20208 0.2266,0.56444 0.46802,-0.79933 1.49881,-8.46667 0.58691,-4.36562 1.14,-8.32445 1.22907,-8.79739 l 0.16197,-0.8599 h 2.37495 2.37496 v 11.64167 11.64166 h -1.49281 -1.4928 v -8.46666 c 0,-4.65667 -0.10657,-8.46667 -0.23683,-8.46667 -0.13025,0 -0.75028,3.48258 -1.37784,7.73906 -0.62755,4.25649 -1.20953,8.06649 -1.29329,8.46667 -0.14287,0.6826 -0.24782,0.7276 -1.69693,0.7276 h -1.54464 l -1.30991,-8.59895 c -0.72045,-4.72943 -1.41927,-8.59896 -1.55292,-8.59896 -0.13366,0 -0.24302,3.86953 -0.24302,8.59896 v 8.59895 h -1.29376 c -0.71157,0 -1.38334,-0.0794 -1.49281,-0.17639 z"
         id="path22100" />
      <rect
         style="fill:#000000;fill-opacity:1;stroke-width:0.689683"
         id="rect26464"
         width="270.93332"
         height="270.93332"
         x="-297.69922"
         y="-296.07428" />
      <g
         id="g63983"
         transform="matrix(1.4409231,0,0,1.4409231,-257.70596,-274.77839)">
        <g
           id="g63977"
           transform="translate(0.93283975)">
          <path
             style="fill:#fecc01;fill-opacity:1;stroke-width:0.264583"
             d="m 89.41076,77.049081 c -1.521603,-0.567677 -2.238542,-1.396995 -2.869939,-3.319804 -0.536228,-1.632989 -0.576326,-2.363429 -0.681754,-12.419355 -0.09182,-8.757449 -0.04779,-10.725022 0.244099,-10.910011 0.412136,-0.261194 2.365381,-0.309165 2.980309,-0.07319 0.372198,0.142825 0.418516,1.358964 0.418516,10.988706 0,8.805301 0.07088,10.997755 0.379439,11.736235 0.413837,0.990452 1.260744,1.368499 2.416122,1.078518 1.366464,-0.342961 1.437772,-0.979667 1.437772,-12.83802 V 50.440782 l 0.620533,-0.155744 c 0.341294,-0.08566 1.085434,-0.117693 1.653645,-0.07119 l 1.033114,0.08456 0.06919,10.697317 c 0.05734,8.865166 5.29e-4,10.96573 -0.332303,12.264492 -0.470437,1.836296 -1.193059,2.949739 -2.278745,3.511169 -1.137746,0.588352 -3.859321,0.73683 -5.089996,0.277694 z M 48.756156,63.816719 V 50.440782 l 0.679608,-0.17057 c 1.383855,-0.347326 6.293326,0.03447 7.391624,0.574827 1.538562,0.756963 2.276932,2.375918 2.447433,5.36626 0.173327,3.039898 -0.243561,4.821243 -1.43763,6.142934 -0.859675,0.951558 -0.876059,1.00631 -0.351009,1.172954 0.302918,0.09614 0.873598,0.662647 1.268179,1.258899 0.691686,1.045209 0.71742,1.212912 0.71742,4.675293 0,3.495042 -0.02125,3.629606 -0.79375,5.025744 -1.311776,2.370775 -1.659814,2.520162 -6.103762,2.619867 l -3.818113,0.08567 z m 6.701217,9.308096 c 1.002729,-1.347877 0.89861,-6.26158 -0.163457,-7.714044 -0.218753,-0.299161 -0.822389,-0.534698 -1.592912,-0.621547 l -1.240681,-0.139843 v 4.679115 4.679115 l 1.230147,-0.08064 c 0.979936,-0.06424 1.339324,-0.227399 1.766903,-0.802153 z M 55.066441,61.260293 c 0.630477,-0.676737 0.833465,-1.642715 0.833465,-3.966274 0,-1.849362 -0.321954,-3.127866 -0.876448,-3.480444 -0.172797,-0.109874 -0.820192,-0.201594 -1.438656,-0.203823 l -1.124479,-0.0041 v 4.101041 4.101042 h 1.048026 c 0.718999,0 1.208162,-0.171885 1.558092,-0.547491 z m 6.453437,2.46572 0.06857,-13.427604 h 4.365625 4.365625 v 1.5875 1.5875 l -2.711979,0.0754 -2.711979,0.0754 v 4.091785 4.091786 h 2.38125 2.38125 v 1.455208 1.455209 h -2.38125 -2.38125 v 4.630208 4.630209 h 2.778125 2.778125 v 1.5875 1.5875 h -4.500341 -4.500342 z m 10.127647,12.7 c 0.06818,-0.400182 0.485378,-2.989791 0.927095,-5.754687 1.644045,-10.29078 2.17763,-13.580019 2.746944,-16.933334 l 0.58396,-3.439583 2.279483,-0.07614 2.279483,-0.07614 0.280805,1.39906 c 0.154443,0.769483 0.520031,2.946872 0.812417,4.838643 0.292383,1.891771 0.893818,5.701771 1.336519,8.466667 1.312693,8.198413 1.839484,11.621539 1.842457,11.972395 0.0019,0.229743 -0.504139,0.33073 -1.657437,0.33073 H 81.419012 L 80.92717,73.912478 c -0.270515,-1.78263 -0.548177,-3.389974 -0.617027,-3.571875 -0.08542,-0.225684 -0.781804,-0.330729 -2.19252,-0.330729 -2.385518,0 -2.034704,-0.539247 -2.797085,4.299479 l -0.448136,2.844271 h -1.674425 -1.674424 z m 8.064882,-10.114564 c 0,-0.28788 -0.230143,-1.98452 -0.511429,-3.770312 -0.281284,-1.785792 -0.590114,-3.871973 -0.686284,-4.635957 -0.09617,-0.763984 -0.263009,-1.389063 -0.370745,-1.389063 -0.107738,0 -0.463947,1.875235 -0.791578,4.167188 -0.327631,2.291953 -0.660704,4.613672 -0.740166,5.159375 l -0.144474,0.992188 h 1.622338 c 1.440011,0 1.622338,-0.05882 1.622338,-0.523419 z m 23.018753,-0.93179 V 53.605701 h -1.98438 -1.984373 v -1.719792 -1.719792 h 5.688543 5.68854 v 1.719792 1.719792 h -1.98437 -1.98438 v 11.773958 11.773959 h -1.71979 -1.71979 z m 12.96458,6.247307 c 0,-5.163746 -0.0449,-5.680617 -0.68438,-7.871355 -2.58731,-8.864234 -3.7673,-13.185667 -3.65155,-13.372946 0.0736,-0.119101 0.83785,-0.216548 1.69832,-0.216548 h 1.5645 l 0.38574,1.389063 c 0.21216,0.763984 0.82562,3.264297 1.36325,5.55625 0.53762,2.291953 1.05197,4.166315 1.143,4.16525 0.091,-0.0011 0.68553,-2.293019 1.32112,-5.09323 0.6356,-2.80021 1.26487,-5.29965 1.39838,-5.554312 0.18555,-0.353934 0.57971,-0.463021 1.67302,-0.463021 0.78666,0 1.5031,0.117818 1.5921,0.261817 0.089,0.143999 -0.85648,3.821172 -2.10105,8.171496 l -2.26287,7.90968 v 5.322254 5.322254 h -1.71979 -1.71979 z"
             id="path5774"
             sodipodi:nodetypes="ssssssssscsscscsssccsssssssssccssscccssscssccccscccccccccccccccccccccccccccssscccssscscsssscccssssssscsscccccccccccccccccsssscsscssssscccccs" />
          <path
             style="fill:#ffffff;fill-opacity:1;stroke-width:0.264583"
             d="m 7.6181506,74.508613 c 0.25954,-1.497846 0.84997,-5.104604 1.3120803,-8.01502 0.4621097,-2.910417 1.1182791,-6.958543 1.4581591,-8.995835 0.33987,-2.037291 0.70109,-4.385214 0.8027,-5.217604 0.10162,-0.832391 0.33879,-1.641274 0.52705,-1.797519 0.19928,-0.165388 1.20951,-0.251606 2.4179,-0.206354 l 2.0756,0.07773 0.854965,5.291667 c 0.470228,2.910417 1.22274,7.613386 1.672248,10.451043 0.830006,5.23966 1.467955,9.057873 1.737224,10.397527 l 0.148786,0.740236 -1.807339,-0.07878 -1.807339,-0.07878 -0.166775,-1.190625 C 16.75171,75.231456 16.52995,73.653877 16.35066,72.38057 L 16.0247,70.065466 h -2.20542 -2.20542 l -0.15652,1.124479 c -0.0861,0.618464 -0.30378,2.196042 -0.48377,3.505729 l -0.32725,2.38125 -1.7500191,0.07752 -1.75003,0.07752 z M 15.33319,66.754681 c 0.0747,-0.07468 0.0343,-0.818823 -0.0898,-1.653646 -0.69914,-4.705236 -1.37144,-8.791414 -1.43584,-8.727007 -0.0726,0.07261 -1.03743,5.933155 -1.31752,8.002898 -0.0788,0.582083 -0.20584,1.385755 -0.28237,1.785937 -0.13911,0.727402 -0.13872,0.727605 1.42527,0.727605 0.86044,0 1.62553,-0.0611 1.70021,-0.135787 z m 6.366134,-2.973068 0.06857,-13.427605 3.175,0.02485 c 3.63813,0.02848 4.718578,0.353552 5.759973,1.733013 0.940267,1.245504 1.248306,2.611282 1.25001,5.542274 0.0017,2.963635 -0.437154,4.671294 -1.559476,6.067873 l -0.796971,0.991725 1.429469,5.387841 c 0.786208,2.963314 1.546555,5.774795 1.689659,6.247738 l 0.260189,0.859896 H 31.070339 29.164931 L 27.745142,71.54358 c -0.780885,-3.116101 -1.510467,-5.812357 -1.621295,-5.99168 -0.110828,-0.179322 -0.392115,-0.252897 -0.625083,-0.163499 -0.370646,0.14223 -0.423578,0.890976 -0.423578,5.99168 v 5.829137 H 23.35297 21.630753 Z m 5.940795,-2.291712 c 0.712586,-0.612475 0.745486,-0.747767 0.820332,-3.373437 0.06767,-2.373786 0.007,-2.849041 -0.459132,-3.595268 C 27.524206,53.757346 27.330792,53.6613 26.2697,53.6613 h -1.194514 v 4.233333 4.233334 h 0.911287 c 0.581522,0 1.179924,-0.230895 1.653646,-0.638066 z m 9.076733,3.945358 V 53.6613 h -1.984375 -1.984375 v -1.719792 -1.719792 h 5.688542 5.688541 V 51.941508 53.6613 H 42.14081 40.156436 v 11.773959 11.773959 h -1.719792 -1.719792 z"
             id="path10490" />
        </g>
        <path
           style="fill:#ffffff;fill-opacity:1;stroke-width:0.281059"
           d="m 24.457778,106.63797 c -0.722763,-1.50705 -0.922267,-1.71213 -1.809035,-1.85955 -1.362249,-0.22648 -2.985445,-1.87611 -3.582356,-3.6407 -1.062395,-3.140667 -1.259394,-9.907707 -0.418429,-14.373447 0.384159,-2.03999 1.624347,-4.06128 2.892069,-4.71356 1.19135,-0.61298 4.319191,-0.6937 5.584814,-0.14412 1.312373,0.56988 2.46441,2.06115 3.040377,3.93567 0.683799,2.22545 0.77405,11.99014 0.132059,14.287497 -0.47292,1.69234 -1.616449,3.58008 -2.447191,4.03985 -0.722661,0.39995 -0.726329,0.75058 -0.02076,1.98996 0.307348,0.5399 0.652283,1.24953 0.766524,1.57695 0.199233,0.57103 0.135636,0.59532 -1.558989,0.59532 h -1.766697 l -0.812349,-1.69387 z m 1.442774,-5.00555 c 0.992557,-0.8796 1.371051,-3.248677 1.363705,-8.535787 -0.01016,-7.37845 -0.965644,-9.61159 -3.712407,-8.67751 -1.391859,0.47332 -2.121754,4.7032 -1.843993,10.68631 0.188423,4.05894 0.741641,6.408247 1.615274,6.859477 0.857,0.44264 1.846849,0.31495 2.577421,-0.33249 z m -17.89991,2.92911 c -0.07876,-0.1819 -0.108103,-5.390877 -0.06522,-11.575517 l 0.07797,-11.24479 4.419654,-0.0733 4.419654,-0.0733 -0.0905,1.39622 -0.0905,1.39622 -2.612401,0.0764 -2.612402,0.0764 v 3.41815 3.41815 l 2.313845,0.0773 2.313845,0.0773 0.09095,1.25677 0.09095,1.25677 h -2.404841 -2.40484 v 3.96875 3.968747 h 2.687047 2.687046 v 1.45521 1.4552 H 12.48239 c -3.195377,0 -4.376233,-0.0871 -4.481706,-0.33073 z m 27.027902,-0.26458 c -2.309207,-1.39069 -2.731495,-3.79465 -2.614331,-14.882807 l 0.08102,-7.67292 1.70618,-0.0791 1.706168,-0.0791 0.0852,9.77504 c 0.08,9.182057 0.119692,9.808797 0.653941,10.331667 0.312809,0.30615 0.930167,0.55664 1.371886,0.55664 0.441731,0 1.059078,-0.25049 1.371898,-0.55664 0.534216,-0.52284 0.573925,-1.14937 0.653896,-10.318747 l 0.0852,-9.76211 h 1.645008 1.645008 l -0.08802,9.98802 c -0.08666,9.829587 -0.09896,10.006017 -0.771883,11.122877 -0.969774,1.60946 -2.150337,2.17023 -4.571494,2.17144 -1.553426,7.7e-4 -2.180601,-0.12516 -2.959627,-0.59432 z M 45.781243,93.250603 v -11.64167 h 1.642085 1.642086 v 11.64167 11.641657 h -1.642086 -1.642085 z m 5.374091,0 v -11.64167 h 1.642086 1.642086 v 10.18646 10.186457 h 2.537757 2.537768 v 1.45521 1.4552 h -4.179843 -4.179854 z m 9.852504,0 v -11.64167 h 1.642086 1.642086 v 11.64167 11.641657 h -1.642086 -1.642086 z m 5.374093,0.006 v -11.69112 l 3.708863,0.0877 c 3.475992,0.0822 3.758965,0.12925 4.506779,0.74918 1.266659,1.05004 1.699381,2.06329 1.857272,4.34892 0.17624,2.55122 -0.233496,4.09084 -1.39535,5.24319 -0.844178,0.83728 -0.844891,0.84108 -0.209264,1.11502 0.35079,0.15118 0.948814,0.81025 1.32894,1.4646 0.618505,1.06469 0.680624,1.4817 0.591067,3.96785 -0.08527,2.367327 -0.209551,2.950717 -0.840421,3.945317 -1.274873,2.00989 -1.904145,2.25861 -5.98697,2.36641 l -3.560916,0.094 V 93.256563 Z m 5.96948,8.461187 c 1.434942,-0.68056 1.404644,-6.179827 -0.03983,-7.224057 -0.398151,-0.28783 -1.022527,-0.44491 -1.577585,-0.39688 l -0.918646,0.0795 -0.0826,3.9026 -0.0826,3.902607 h 1.072573 c 0.589915,0 1.322834,-0.1187 1.628703,-0.26377 z m -0.01975,-10.565077 c 0.686778,-0.60862 1.039364,-2.41419 0.855375,-4.38034 -0.172682,-1.84542 -0.57344,-2.25331 -2.213934,-2.25331 h -1.306968 v 3.57187 3.57188 h 1.044971 c 0.633856,0 1.271412,-0.20068 1.620556,-0.5101 z m 6.2913,2.06904 v -11.67022 l 3.358807,0.095 c 2.93861,0.0831 3.480761,0.17204 4.333636,0.71088 1.552871,0.98109 1.965033,1.95751 2.1031,4.98225 0.138536,3.03507 -0.352708,4.88463 -1.565539,5.89436 l -0.707314,0.58887 1.464342,4.93924 c 0.805388,2.716577 1.545691,5.207127 1.645113,5.534547 0.172718,0.56879 0.101332,0.59531 -1.602171,0.59531 h -1.782942 l -1.217951,-4.16718 c -0.669872,-2.291957 -1.334887,-4.583727 -1.477811,-5.092827 -0.149749,-0.5334 -0.473265,-0.96206 -0.763482,-1.01159 -0.458604,-0.0783 -0.503621,0.37696 -0.503621,5.09283 v 5.178767 h -1.642084 -1.642083 z m 5.564651,-1.92017 c 0.707807,-0.53954 0.838314,-0.86705 0.946718,-2.37577 0.232077,-3.22988 -0.35641,-4.40675 -2.203565,-4.40675 h -1.023637 v 3.70416 3.70417 h 0.729753 c 0.401365,0 1.099194,-0.28161 1.550731,-0.62581 z m 6.875379,13.413997 c -0.109468,-0.097 -0.199042,-5.335757 -0.199042,-11.641657 v -11.46528 h 1.642084 1.642084 v 11.64167 11.641657 h -1.443043 c -0.793675,0 -1.532613,-0.0794 -1.642083,-0.17639 z m 8.309938,-0.076 c -0.86493,-0.31704 -1.833843,-1.3195 -2.444665,-2.52931 -0.472996,-0.93683 -0.543865,-2.141607 -0.634003,-10.778157 l -0.101479,-9.72344 h 1.633864 1.633865 l 0.123969,9.45885 c 0.133489,10.185127 0.222018,10.767997 1.68495,11.093387 0.9762,0.21712 2.20056,-0.39956 2.46511,-1.24163 0.11361,-0.36162 0.21995,-4.854437 0.23632,-9.984047 l 0.0298,-9.32656 h 1.64209 1.64208 v 9.07254 c 0,7.19501 -0.0923,9.386617 -0.44608,10.590257 -0.83614,2.84481 -1.92438,3.63108 -4.98783,3.60376 -1.03445,-0.009 -2.149532,-0.11526 -2.477947,-0.23565 z m 10.200821,0.076 c -0.10946,-0.097 -0.19904,-5.335757 -0.19904,-11.641657 v -11.46528 h 2.51153 2.51152 l 0.17052,0.99219 c 0.0938,0.5457 0.64675,4.56406 1.22879,8.92969 0.58205,4.36562 1.10606,8.05656 1.16448,8.20208 0.2266,0.564437 0.46802,-0.79933 1.49881,-8.46667 0.58691,-4.36562 1.14,-8.32445 1.22908,-8.79739 l 0.16196,-0.8599 h 2.37495 2.37496 v 11.64167 11.641657 h -1.4928 -1.49281 v -8.466657 c 0,-4.65667 -0.10657,-8.46667 -0.23683,-8.46667 -0.13025,0 -0.75028,3.48258 -1.37784,7.73906 -0.62755,4.25649 -1.20953,8.066487 -1.29329,8.466667 -0.14287,0.6826 -0.24782,0.7276 -1.69693,0.7276 h -1.54464 l -1.30991,-8.598947 c -0.72045,-4.72943 -1.41927,-8.59896 -1.55292,-8.59896 -0.13366,0 -0.24302,3.86953 -0.24302,8.59896 v 8.598947 h -1.29376 c -0.71157,0 -1.38334,-0.0794 -1.49281,-0.17639 z"
           id="path22100-6" />
      </g>
    </g>
    <g
       id="g64348"
       transform="translate(-588.69792,-906.19792)"
       inkscape:export-filename="E:\Trabajo\Aplicaciones\Art Beauty Equilibrium Barbershop Salon Makeup Studio\Citas\fichaPS\se.png"
       inkscape:export-xdpi="96"
       inkscape:export-ydpi="96">
      <rect
         style="fill:#000000;fill-opacity:1;stroke-width:0.566385"
         id="rect64167"
         width="1083.7333"
         height="1083.7333"
         x="-897.92969"
         y="525.85938" />
      <g
         id="g64086-0"
         transform="matrix(2.0000001,0,0,2.0000001,-487.2633,909.2406)">
        <path
           style="fill:#000000;stroke-width:0.281059"
           d="m 23.141027,106.77652 c -0.722763,-1.50705 -0.922267,-1.71213 -1.809035,-1.85955 -1.362249,-0.22648 -2.985445,-1.87611 -3.582356,-3.6407 -1.062395,-3.140673 -1.259394,-9.907713 -0.418429,-14.373453 0.384159,-2.03999 1.624347,-4.06128 2.892069,-4.71356 1.19135,-0.61298 4.319191,-0.6937 5.584814,-0.14412 1.312373,0.56988 2.464409,2.06115 3.040376,3.93567 0.683799,2.22545 0.77405,11.99014 0.132059,14.287503 -0.47292,1.69234 -1.616448,3.58008 -2.44719,4.03985 -0.722661,0.39995 -0.726329,0.75058 -0.02076,1.98996 0.307348,0.5399 0.652283,1.24953 0.766524,1.57695 0.199233,0.57103 0.135636,0.59532 -1.558989,0.59532 h -1.766697 l -0.812349,-1.69387 z m 1.442774,-5.00555 c 0.992557,-0.8796 1.371051,-3.248683 1.363705,-8.535793 -0.01016,-7.37845 -0.965644,-9.61159 -3.712407,-8.67751 -1.391859,0.47332 -2.121754,4.7032 -1.843993,10.68631 0.188423,4.05894 0.741641,6.408253 1.615274,6.859483 0.857,0.44264 1.846849,0.31495 2.577421,-0.33249 z m -17.89991,2.92911 c -0.07876,-0.1819 -0.108103,-5.390883 -0.06522,-11.575523 l 0.07797,-11.24479 4.419654,-0.0733 4.419654,-0.0733 -0.0905,1.39622 -0.0905,1.39622 -2.612401,0.0764 -2.612402,0.0764 v 3.41815 3.41815 l 2.313845,0.0773 2.313845,0.0773 0.09095,1.25677 0.09095,1.25677 h -2.404841 -2.40484 v 3.96875 3.968753 h 2.687047 2.687046 v 1.45521 1.4552 h -4.338509 c -3.195377,0 -4.376233,-0.0871 -4.481706,-0.33073 z m 27.027901,-0.26458 c -2.309207,-1.39069 -2.731495,-3.79465 -2.614331,-14.882813 l 0.08102,-7.67292 1.70618,-0.0791 1.706168,-0.0791 0.0852,9.77504 c 0.08,9.182063 0.119692,9.808803 0.653942,10.331673 0.312808,0.30615 0.930166,0.55664 1.371885,0.55664 0.441731,0 1.059078,-0.25049 1.371898,-0.55664 0.534216,-0.52284 0.573925,-1.14937 0.653896,-10.318753 l 0.0852,-9.76211 h 1.645008 1.645008 l -0.08802,9.98802 c -0.08666,9.829593 -0.09896,10.006023 -0.771883,11.122883 -0.969775,1.60946 -2.150337,2.17023 -4.571494,2.17144 -1.553426,7.7e-4 -2.180601,-0.12516 -2.959627,-0.59432 z M 44.464491,93.389147 v -11.64167 h 1.642086 1.642085 v 11.64167 11.641663 h -1.642085 -1.642086 z m 5.374093,0 v -11.64167 h 1.642085 1.642086 v 10.18646 10.186463 h 2.537757 2.537768 v 1.45521 1.4552 h -4.179843 -4.179853 z m 9.852503,0 v -11.64167 h 1.642086 1.642086 v 11.64167 11.641663 h -1.642086 -1.642086 z m 5.374093,0.006 v -11.69112 l 3.708863,0.0877 c 3.475992,0.0822 3.758965,0.12925 4.506779,0.74918 1.266659,1.05004 1.699381,2.06329 1.857272,4.34892 0.17624,2.55122 -0.233496,4.09084 -1.39535,5.24319 -0.844178,0.83728 -0.844891,0.84108 -0.209264,1.11502 0.35079,0.15118 0.948814,0.81025 1.32894,1.4646 0.618505,1.06469 0.680624,1.4817 0.591067,3.96785 -0.08527,2.367333 -0.209551,2.950723 -0.840421,3.945323 -1.274873,2.00989 -1.904145,2.25861 -5.98697,2.36641 l -3.560916,0.094 V 93.395107 Z m 5.96948,8.461193 c 1.434942,-0.68056 1.404644,-6.179833 -0.03983,-7.224063 -0.398151,-0.28783 -1.022527,-0.44491 -1.577585,-0.39688 l -0.918646,0.0795 -0.0826,3.9026 -0.0826,3.902613 h 1.072573 c 0.589915,0 1.322834,-0.1187 1.628703,-0.26377 z M 71.01491,91.291257 c 0.686778,-0.60862 1.039364,-2.41419 0.855375,-4.38034 -0.172682,-1.84542 -0.57344,-2.25331 -2.213934,-2.25331 h -1.306968 v 3.57187 3.57188 h 1.044971 c 0.633856,0 1.271412,-0.20068 1.620556,-0.5101 z m 6.2913,2.06904 v -11.67022 l 3.358807,0.095 c 2.93861,0.0831 3.480761,0.17204 4.333636,0.71088 1.552871,0.98109 1.965033,1.95751 2.1031,4.98225 0.138536,3.03507 -0.352708,4.88463 -1.565539,5.89436 l -0.707314,0.58887 1.464342,4.93924 c 0.805388,2.716583 1.545691,5.207133 1.645113,5.534553 0.172718,0.56879 0.101332,0.59531 -1.602171,0.59531 h -1.782942 l -1.217951,-4.16718 c -0.669872,-2.291963 -1.334887,-4.583733 -1.477811,-5.092833 -0.149749,-0.5334 -0.473265,-0.96206 -0.763482,-1.01159 -0.458604,-0.0783 -0.503621,0.37696 -0.503621,5.09283 v 5.178773 H 78.948293 77.30621 Z m 5.564651,-1.92017 c 0.707807,-0.53954 0.838314,-0.86705 0.946718,-2.37577 0.232077,-3.22988 -0.35641,-4.40675 -2.203565,-4.40675 h -1.023637 v 3.70416 3.70417 h 0.729753 c 0.401365,0 1.099194,-0.28161 1.550731,-0.62581 z m 6.875379,13.414003 c -0.109468,-0.097 -0.199042,-5.335763 -0.199042,-11.641663 v -11.46528 h 1.642084 1.642084 v 11.64167 11.641663 h -1.443043 c -0.793675,0 -1.532613,-0.0794 -1.642083,-0.17639 z m 8.309938,-0.076 c -0.86493,-0.31704 -1.833843,-1.3195 -2.444665,-2.52931 -0.472996,-0.93683 -0.543865,-2.14161 -0.634003,-10.778163 l -0.101479,-9.72344 h 1.633864 1.633865 l 0.123969,9.45885 c 0.133489,10.185133 0.222018,10.768003 1.684954,11.093393 0.976197,0.21712 2.200557,-0.39956 2.465107,-1.24163 0.11361,-0.36162 0.21995,-4.854443 0.23632,-9.984053 l 0.0298,-9.32656 h 1.64209 1.64208 v 9.07254 c 0,7.19501 -0.0923,9.386623 -0.44609,10.590263 -0.83613,2.84481 -1.92437,3.63108 -4.98782,3.60376 -1.034453,-0.009 -2.149533,-0.11526 -2.477948,-0.23565 z m 10.200822,0.076 c -0.10946,-0.097 -0.19904,-5.335763 -0.19904,-11.641663 v -11.46528 h 2.51153 2.51152 l 0.17052,0.99219 c 0.0938,0.5457 0.64675,4.56406 1.22879,8.92969 0.58205,4.36562 1.10606,8.05656 1.16448,8.20208 0.2266,0.564443 0.46802,-0.79933 1.49881,-8.46667 0.58691,-4.36562 1.14,-8.32445 1.22907,-8.79739 l 0.16197,-0.8599 h 2.37495 2.37496 v 11.64167 11.641663 h -1.49281 -1.4928 v -8.466663 c 0,-4.65667 -0.10657,-8.46667 -0.23683,-8.46667 -0.13025,0 -0.75028,3.48258 -1.37784,7.73906 -0.62755,4.256493 -1.20953,8.066493 -1.29329,8.466673 -0.14287,0.6826 -0.24782,0.7276 -1.69693,0.7276 h -1.54464 l -1.30991,-8.598953 c -0.72045,-4.72943 -1.41927,-8.59896 -1.55292,-8.59896 -0.13366,0 -0.24302,3.86953 -0.24302,8.59896 v 8.598953 h -1.29376 c -0.71157,0 -1.38334,-0.0794 -1.49281,-0.17639 z"
           id="path22100-8" />
        <rect
           style="fill:#000000;fill-opacity:1;stroke-width:0.689683"
           id="rect26464-8"
           width="270.93332"
           height="270.93332"
           x="-69.866539"
           y="-56.223957" />
        <g
           id="g63983-1"
           transform="matrix(1.4409231,0,0,1.4409231,-29.873275,-34.928056)">
          <g
             id="g63977-2"
             transform="translate(0.93283975)">
            <path
               style="fill:#fecc01;fill-opacity:1;stroke-width:0.264583"
               d="m 89.41076,77.049081 c -1.521603,-0.567677 -2.238542,-1.396995 -2.869939,-3.319804 -0.536228,-1.632989 -0.576326,-2.363429 -0.681754,-12.419355 -0.09182,-8.757449 -0.04779,-10.725022 0.244099,-10.910011 0.412136,-0.261194 2.365381,-0.309165 2.980309,-0.07319 0.372198,0.142825 0.418516,1.358964 0.418516,10.988706 0,8.805301 0.07088,10.997755 0.379439,11.736235 0.413837,0.990452 1.260744,1.368499 2.416122,1.078518 1.366464,-0.342961 1.437772,-0.979667 1.437772,-12.83802 V 50.440782 l 0.620533,-0.155744 c 0.341294,-0.08566 1.085434,-0.117693 1.653645,-0.07119 l 1.033114,0.08456 0.06919,10.697317 c 0.05734,8.865166 5.29e-4,10.96573 -0.332303,12.264492 -0.470437,1.836296 -1.193059,2.949739 -2.278745,3.511169 -1.137746,0.588352 -3.859321,0.73683 -5.089996,0.277694 z M 48.756156,63.816719 V 50.440782 l 0.679608,-0.17057 c 1.383855,-0.347326 6.293326,0.03447 7.391624,0.574827 1.538562,0.756963 2.276932,2.375918 2.447433,5.36626 0.173327,3.039898 -0.243561,4.821243 -1.43763,6.142934 -0.859675,0.951558 -0.876059,1.00631 -0.351009,1.172954 0.302918,0.09614 0.873598,0.662647 1.268179,1.258899 0.691686,1.045209 0.71742,1.212912 0.71742,4.675293 0,3.495042 -0.02125,3.629606 -0.79375,5.025744 -1.311776,2.370775 -1.659814,2.520162 -6.103762,2.619867 l -3.818113,0.08567 z m 6.701217,9.308096 c 1.002729,-1.347877 0.89861,-6.26158 -0.163457,-7.714044 -0.218753,-0.299161 -0.822389,-0.534698 -1.592912,-0.621547 l -1.240681,-0.139843 v 4.679115 4.679115 l 1.230147,-0.08064 c 0.979936,-0.06424 1.339324,-0.227399 1.766903,-0.802153 z M 55.066441,61.260293 c 0.630477,-0.676737 0.833465,-1.642715 0.833465,-3.966274 0,-1.849362 -0.321954,-3.127866 -0.876448,-3.480444 -0.172797,-0.109874 -0.820192,-0.201594 -1.438656,-0.203823 l -1.124479,-0.0041 v 4.101041 4.101042 h 1.048026 c 0.718999,0 1.208162,-0.171885 1.558092,-0.547491 z m 6.453437,2.46572 0.06857,-13.427604 h 4.365625 4.365625 v 1.5875 1.5875 l -2.711979,0.0754 -2.711979,0.0754 v 4.091785 4.091786 h 2.38125 2.38125 v 1.455208 1.455209 h -2.38125 -2.38125 v 4.630208 4.630209 h 2.778125 2.778125 v 1.5875 1.5875 h -4.500341 -4.500342 z m 10.127647,12.7 c 0.06818,-0.400182 0.485378,-2.989791 0.927095,-5.754687 1.644045,-10.29078 2.17763,-13.580019 2.746944,-16.933334 l 0.58396,-3.439583 2.279483,-0.07614 2.279483,-0.07614 0.280805,1.39906 c 0.154443,0.769483 0.520031,2.946872 0.812417,4.838643 0.292383,1.891771 0.893818,5.701771 1.336519,8.466667 1.312693,8.198413 1.839484,11.621539 1.842457,11.972395 0.0019,0.229743 -0.504139,0.33073 -1.657437,0.33073 H 81.419012 L 80.92717,73.912478 c -0.270515,-1.78263 -0.548177,-3.389974 -0.617027,-3.571875 -0.08542,-0.225684 -0.781804,-0.330729 -2.19252,-0.330729 -2.385518,0 -2.034704,-0.539247 -2.797085,4.299479 l -0.448136,2.844271 h -1.674425 -1.674424 z m 8.064882,-10.114564 c 0,-0.28788 -0.230143,-1.98452 -0.511429,-3.770312 -0.281284,-1.785792 -0.590114,-3.871973 -0.686284,-4.635957 -0.09617,-0.763984 -0.263009,-1.389063 -0.370745,-1.389063 -0.107738,0 -0.463947,1.875235 -0.791578,4.167188 -0.327631,2.291953 -0.660704,4.613672 -0.740166,5.159375 l -0.144474,0.992188 h 1.622338 c 1.440011,0 1.622338,-0.05882 1.622338,-0.523419 z m 23.018753,-0.93179 V 53.605701 h -1.98438 -1.984373 v -1.719792 -1.719792 h 5.688543 5.68854 v 1.719792 1.719792 h -1.98437 -1.98438 v 11.773958 11.773959 h -1.71979 -1.71979 z m 12.96458,6.247307 c 0,-5.163746 -0.0449,-5.680617 -0.68438,-7.871355 -2.58731,-8.864234 -3.7673,-13.185667 -3.65155,-13.372946 0.0736,-0.119101 0.83785,-0.216548 1.69832,-0.216548 h 1.5645 l 0.38574,1.389063 c 0.21216,0.763984 0.82562,3.264297 1.36325,5.55625 0.53762,2.291953 1.05197,4.166315 1.143,4.16525 0.091,-0.0011 0.68553,-2.293019 1.32112,-5.09323 0.6356,-2.80021 1.26487,-5.29965 1.39838,-5.554312 0.18555,-0.353934 0.57971,-0.463021 1.67302,-0.463021 0.78666,0 1.5031,0.117818 1.5921,0.261817 0.089,0.143999 -0.85648,3.821172 -2.10105,8.171496 l -2.26287,7.90968 v 5.322254 5.322254 h -1.71979 -1.71979 z"
               id="path5774-1"
               sodipodi:nodetypes="ssssssssscsscscsssccsssssssssccssscccssscssccccscccccccccccccccccccccccccccssscccssscscsssscccssssssscsscccccccccccccccccsssscsscssssscccccs" />
            <path
               style="fill:#ffffff;fill-opacity:1;stroke-width:0.264583"
               d="m 7.6181506,74.508613 c 0.25954,-1.497846 0.84997,-5.104604 1.3120803,-8.01502 0.4621097,-2.910417 1.1182791,-6.958543 1.4581591,-8.995835 0.33987,-2.037291 0.70109,-4.385214 0.8027,-5.217604 0.10162,-0.832391 0.33879,-1.641274 0.52705,-1.797519 0.19928,-0.165388 1.20951,-0.251606 2.4179,-0.206354 l 2.0756,0.07773 0.854965,5.291667 c 0.470228,2.910417 1.22274,7.613386 1.672248,10.451043 0.830006,5.23966 1.467955,9.057873 1.737224,10.397527 l 0.148786,0.740236 -1.807339,-0.07878 -1.807339,-0.07878 -0.166775,-1.190625 C 16.75171,75.231456 16.52995,73.653877 16.35066,72.38057 L 16.0247,70.065466 h -2.20542 -2.20542 l -0.15652,1.124479 c -0.0861,0.618464 -0.30378,2.196042 -0.48377,3.505729 l -0.32725,2.38125 -1.7500191,0.07752 -1.75003,0.07752 z M 15.33319,66.754681 c 0.0747,-0.07468 0.0343,-0.818823 -0.0898,-1.653646 -0.69914,-4.705236 -1.37144,-8.791414 -1.43584,-8.727007 -0.0726,0.07261 -1.03743,5.933155 -1.31752,8.002898 -0.0788,0.582083 -0.20584,1.385755 -0.28237,1.785937 -0.13911,0.727402 -0.13872,0.727605 1.42527,0.727605 0.86044,0 1.62553,-0.0611 1.70021,-0.135787 z m 6.366134,-2.973068 0.06857,-13.427605 3.175,0.02485 c 3.63813,0.02848 4.718578,0.353552 5.759973,1.733013 0.940267,1.245504 1.248306,2.611282 1.25001,5.542274 0.0017,2.963635 -0.437154,4.671294 -1.559476,6.067873 l -0.796971,0.991725 1.429469,5.387841 c 0.786208,2.963314 1.546555,5.774795 1.689659,6.247738 l 0.260189,0.859896 H 31.070339 29.164931 L 27.745142,71.54358 c -0.780885,-3.116101 -1.510467,-5.812357 -1.621295,-5.99168 -0.110828,-0.179322 -0.392115,-0.252897 -0.625083,-0.163499 -0.370646,0.14223 -0.423578,0.890976 -0.423578,5.99168 v 5.829137 H 23.35297 21.630753 Z m 5.940795,-2.291712 c 0.712586,-0.612475 0.745486,-0.747767 0.820332,-3.373437 0.06767,-2.373786 0.007,-2.849041 -0.459132,-3.595268 C 27.524206,53.757346 27.330792,53.6613 26.2697,53.6613 h -1.194514 v 4.233333 4.233334 h 0.911287 c 0.581522,0 1.179924,-0.230895 1.653646,-0.638066 z m 9.076733,3.945358 V 53.6613 h -1.984375 -1.984375 v -1.719792 -1.719792 h 5.688542 5.688541 V 51.941508 53.6613 H 42.14081 40.156436 v 11.773959 11.773959 h -1.719792 -1.719792 z"
               id="path10490-8" />
          </g>
          <path
             style="fill:#ffffff;fill-opacity:1;stroke-width:0.281059"
             d="m 24.457778,106.63797 c -0.722763,-1.50705 -0.922267,-1.71213 -1.809035,-1.85955 -1.362249,-0.22648 -2.985445,-1.87611 -3.582356,-3.6407 -1.062395,-3.140667 -1.259394,-9.907707 -0.418429,-14.373447 0.384159,-2.03999 1.624347,-4.06128 2.892069,-4.71356 1.19135,-0.61298 4.319191,-0.6937 5.584814,-0.14412 1.312373,0.56988 2.46441,2.06115 3.040377,3.93567 0.683799,2.22545 0.77405,11.99014 0.132059,14.287497 -0.47292,1.69234 -1.616449,3.58008 -2.447191,4.03985 -0.722661,0.39995 -0.726329,0.75058 -0.02076,1.98996 0.307348,0.5399 0.652283,1.24953 0.766524,1.57695 0.199233,0.57103 0.135636,0.59532 -1.558989,0.59532 h -1.766697 l -0.812349,-1.69387 z m 1.442774,-5.00555 c 0.992557,-0.8796 1.371051,-3.248677 1.363705,-8.535787 -0.01016,-7.37845 -0.965644,-9.61159 -3.712407,-8.67751 -1.391859,0.47332 -2.121754,4.7032 -1.843993,10.68631 0.188423,4.05894 0.741641,6.408247 1.615274,6.859477 0.857,0.44264 1.846849,0.31495 2.577421,-0.33249 z m -17.89991,2.92911 c -0.07876,-0.1819 -0.108103,-5.390877 -0.06522,-11.575517 l 0.07797,-11.24479 4.419654,-0.0733 4.419654,-0.0733 -0.0905,1.39622 -0.0905,1.39622 -2.612401,0.0764 -2.612402,0.0764 v 3.41815 3.41815 l 2.313845,0.0773 2.313845,0.0773 0.09095,1.25677 0.09095,1.25677 h -2.404841 -2.40484 v 3.96875 3.968747 h 2.687047 2.687046 v 1.45521 1.4552 H 12.48239 c -3.195377,0 -4.376233,-0.0871 -4.481706,-0.33073 z m 27.027902,-0.26458 c -2.309207,-1.39069 -2.731495,-3.79465 -2.614331,-14.882807 l 0.08102,-7.67292 1.70618,-0.0791 1.706168,-0.0791 0.0852,9.77504 c 0.08,9.182057 0.119692,9.808797 0.653941,10.331667 0.312809,0.30615 0.930167,0.55664 1.371886,0.55664 0.441731,0 1.059078,-0.25049 1.371898,-0.55664 0.534216,-0.52284 0.573925,-1.14937 0.653896,-10.318747 l 0.0852,-9.76211 h 1.645008 1.645008 l -0.08802,9.98802 c -0.08666,9.829587 -0.09896,10.006017 -0.771883,11.122877 -0.969774,1.60946 -2.150337,2.17023 -4.571494,2.17144 -1.553426,7.7e-4 -2.180601,-0.12516 -2.959627,-0.59432 z M 45.781243,93.250603 v -11.64167 h 1.642085 1.642086 v 11.64167 11.641657 h -1.642086 -1.642085 z m 5.374091,0 v -11.64167 h 1.642086 1.642086 v 10.18646 10.186457 h 2.537757 2.537768 v 1.45521 1.4552 h -4.179843 -4.179854 z m 9.852504,0 v -11.64167 h 1.642086 1.642086 v 11.64167 11.641657 h -1.642086 -1.642086 z m 5.374093,0.006 v -11.69112 l 3.708863,0.0877 c 3.475992,0.0822 3.758965,0.12925 4.506779,0.74918 1.266659,1.05004 1.699381,2.06329 1.857272,4.34892 0.17624,2.55122 -0.233496,4.09084 -1.39535,5.24319 -0.844178,0.83728 -0.844891,0.84108 -0.209264,1.11502 0.35079,0.15118 0.948814,0.81025 1.32894,1.4646 0.618505,1.06469 0.680624,1.4817 0.591067,3.96785 -0.08527,2.367327 -0.209551,2.950717 -0.840421,3.945317 -1.274873,2.00989 -1.904145,2.25861 -5.98697,2.36641 l -3.560916,0.094 V 93.256563 Z m 5.96948,8.461187 c 1.434942,-0.68056 1.404644,-6.179827 -0.03983,-7.224057 -0.398151,-0.28783 -1.022527,-0.44491 -1.577585,-0.39688 l -0.918646,0.0795 -0.0826,3.9026 -0.0826,3.902607 h 1.072573 c 0.589915,0 1.322834,-0.1187 1.628703,-0.26377 z m -0.01975,-10.565077 c 0.686778,-0.60862 1.039364,-2.41419 0.855375,-4.38034 -0.172682,-1.84542 -0.57344,-2.25331 -2.213934,-2.25331 h -1.306968 v 3.57187 3.57188 h 1.044971 c 0.633856,0 1.271412,-0.20068 1.620556,-0.5101 z m 6.2913,2.06904 v -11.67022 l 3.358807,0.095 c 2.93861,0.0831 3.480761,0.17204 4.333636,0.71088 1.552871,0.98109 1.965033,1.95751 2.1031,4.98225 0.138536,3.03507 -0.352708,4.88463 -1.565539,5.89436 l -0.707314,0.58887 1.464342,4.93924 c 0.805388,2.716577 1.545691,5.207127 1.645113,5.534547 0.172718,0.56879 0.101332,0.59531 -1.602171,0.59531 h -1.782942 l -1.217951,-4.16718 c -0.669872,-2.291957 -1.334887,-4.583727 -1.477811,-5.092827 -0.149749,-0.5334 -0.473265,-0.96206 -0.763482,-1.01159 -0.458604,-0.0783 -0.503621,0.37696 -0.503621,5.09283 v 5.178767 h -1.642084 -1.642083 z m 5.564651,-1.92017 c 0.707807,-0.53954 0.838314,-0.86705 0.946718,-2.37577 0.232077,-3.22988 -0.35641,-4.40675 -2.203565,-4.40675 h -1.023637 v 3.70416 3.70417 h 0.729753 c 0.401365,0 1.099194,-0.28161 1.550731,-0.62581 z m 6.875379,13.413997 c -0.109468,-0.097 -0.199042,-5.335757 -0.199042,-11.641657 v -11.46528 h 1.642084 1.642084 v 11.64167 11.641657 h -1.443043 c -0.793675,0 -1.532613,-0.0794 -1.642083,-0.17639 z m 8.309938,-0.076 c -0.86493,-0.31704 -1.833843,-1.3195 -2.444665,-2.52931 -0.472996,-0.93683 -0.543865,-2.141607 -0.634003,-10.778157 l -0.101479,-9.72344 h 1.633864 1.633865 l 0.123969,9.45885 c 0.133489,10.185127 0.222018,10.767997 1.68495,11.093387 0.9762,0.21712 2.20056,-0.39956 2.46511,-1.24163 0.11361,-0.36162 0.21995,-4.854437 0.23632,-9.984047 l 0.0298,-9.32656 h 1.64209 1.64208 v 9.07254 c 0,7.19501 -0.0923,9.386617 -0.44608,10.590257 -0.83614,2.84481 -1.92438,3.63108 -4.98783,3.60376 -1.03445,-0.009 -2.149532,-0.11526 -2.477947,-0.23565 z m 10.200821,0.076 c -0.10946,-0.097 -0.19904,-5.335757 -0.19904,-11.641657 v -11.46528 h 2.51153 2.51152 l 0.17052,0.99219 c 0.0938,0.5457 0.64675,4.56406 1.22879,8.92969 0.58205,4.36562 1.10606,8.05656 1.16448,8.20208 0.2266,0.564437 0.46802,-0.79933 1.49881,-8.46667 0.58691,-4.36562 1.14,-8.32445 1.22908,-8.79739 l 0.16196,-0.8599 h 2.37495 2.37496 v 11.64167 11.641657 h -1.4928 -1.49281 v -8.466657 c 0,-4.65667 -0.10657,-8.46667 -0.23683,-8.46667 -0.13025,0 -0.75028,3.48258 -1.37784,7.73906 -0.62755,4.25649 -1.20953,8.066487 -1.29329,8.466667 -0.14287,0.6826 -0.24782,0.7276 -1.69693,0.7276 h -1.54464 l -1.30991,-8.598947 c -0.72045,-4.72943 -1.41927,-8.59896 -1.55292,-8.59896 -0.13366,0 -0.24302,3.86953 -0.24302,8.59896 v 8.598947 h -1.29376 c -0.71157,0 -1.38334,-0.0794 -1.49281,-0.17639 z"
             id="path22100-6-6" />
        </g>
      </g>
    </g>
    <g
       id="g64798"
       inkscape:export-filename="E:\Trabajo\Aplicaciones\Art Beauty Equilibrium Barbershop Salon Makeup Studio\Citas\fichaPS\id.png"
       inkscape:export-xdpi="95.999954"
       inkscape:export-ydpi="95.999954">
      <rect
         style="fill:#000000;fill-opacity:1;stroke-width:0.10676"
         id="rect64532"
         width="270.93332"
         height="132.29167"
         x="-297.00323"
         y="30.401913" />
      <g
         id="g63983-5"
         transform="matrix(1.4409231,0,0,1.4409231,-257.00998,-17.62301)">
        <g
           id="g63977-6"
           transform="translate(0.93283975)">
          <path
             style="fill:#fecc01;fill-opacity:1;stroke-width:0.264583"
             d="m 89.41076,77.049081 c -1.521603,-0.567677 -2.238542,-1.396995 -2.869939,-3.319804 -0.536228,-1.632989 -0.576326,-2.363429 -0.681754,-12.419355 -0.09182,-8.757449 -0.04779,-10.725022 0.244099,-10.910011 0.412136,-0.261194 2.365381,-0.309165 2.980309,-0.07319 0.372198,0.142825 0.418516,1.358964 0.418516,10.988706 0,8.805301 0.07088,10.997755 0.379439,11.736235 0.413837,0.990452 1.260744,1.368499 2.416122,1.078518 1.366464,-0.342961 1.437772,-0.979667 1.437772,-12.83802 V 50.440782 l 0.620533,-0.155744 c 0.341294,-0.08566 1.085434,-0.117693 1.653645,-0.07119 l 1.033114,0.08456 0.06919,10.697317 c 0.05734,8.865166 5.29e-4,10.96573 -0.332303,12.264492 -0.470437,1.836296 -1.193059,2.949739 -2.278745,3.511169 -1.137746,0.588352 -3.859321,0.73683 -5.089996,0.277694 z M 48.756156,63.816719 V 50.440782 l 0.679608,-0.17057 c 1.383855,-0.347326 6.293326,0.03447 7.391624,0.574827 1.538562,0.756963 2.276932,2.375918 2.447433,5.36626 0.173327,3.039898 -0.243561,4.821243 -1.43763,6.142934 -0.859675,0.951558 -0.876059,1.00631 -0.351009,1.172954 0.302918,0.09614 0.873598,0.662647 1.268179,1.258899 0.691686,1.045209 0.71742,1.212912 0.71742,4.675293 0,3.495042 -0.02125,3.629606 -0.79375,5.025744 -1.311776,2.370775 -1.659814,2.520162 -6.103762,2.619867 l -3.818113,0.08567 z m 6.701217,9.308096 c 1.002729,-1.347877 0.89861,-6.26158 -0.163457,-7.714044 -0.218753,-0.299161 -0.822389,-0.534698 -1.592912,-0.621547 l -1.240681,-0.139843 v 4.679115 4.679115 l 1.230147,-0.08064 c 0.979936,-0.06424 1.339324,-0.227399 1.766903,-0.802153 z M 55.066441,61.260293 c 0.630477,-0.676737 0.833465,-1.642715 0.833465,-3.966274 0,-1.849362 -0.321954,-3.127866 -0.876448,-3.480444 -0.172797,-0.109874 -0.820192,-0.201594 -1.438656,-0.203823 l -1.124479,-0.0041 v 4.101041 4.101042 h 1.048026 c 0.718999,0 1.208162,-0.171885 1.558092,-0.547491 z m 6.453437,2.46572 0.06857,-13.427604 h 4.365625 4.365625 v 1.5875 1.5875 l -2.711979,0.0754 -2.711979,0.0754 v 4.091785 4.091786 h 2.38125 2.38125 v 1.455208 1.455209 h -2.38125 -2.38125 v 4.630208 4.630209 h 2.778125 2.778125 v 1.5875 1.5875 h -4.500341 -4.500342 z m 10.127647,12.7 c 0.06818,-0.400182 0.485378,-2.989791 0.927095,-5.754687 1.644045,-10.29078 2.17763,-13.580019 2.746944,-16.933334 l 0.58396,-3.439583 2.279483,-0.07614 2.279483,-0.07614 0.280805,1.39906 c 0.154443,0.769483 0.520031,2.946872 0.812417,4.838643 0.292383,1.891771 0.893818,5.701771 1.336519,8.466667 1.312693,8.198413 1.839484,11.621539 1.842457,11.972395 0.0019,0.229743 -0.504139,0.33073 -1.657437,0.33073 H 81.419012 L 80.92717,73.912478 c -0.270515,-1.78263 -0.548177,-3.389974 -0.617027,-3.571875 -0.08542,-0.225684 -0.781804,-0.330729 -2.19252,-0.330729 -2.385518,0 -2.034704,-0.539247 -2.797085,4.299479 l -0.448136,2.844271 h -1.674425 -1.674424 z m 8.064882,-10.114564 c 0,-0.28788 -0.230143,-1.98452 -0.511429,-3.770312 -0.281284,-1.785792 -0.590114,-3.871973 -0.686284,-4.635957 -0.09617,-0.763984 -0.263009,-1.389063 -0.370745,-1.389063 -0.107738,0 -0.463947,1.875235 -0.791578,4.167188 -0.327631,2.291953 -0.660704,4.613672 -0.740166,5.159375 l -0.144474,0.992188 h 1.622338 c 1.440011,0 1.622338,-0.05882 1.622338,-0.523419 z m 23.018753,-0.93179 V 53.605701 h -1.98438 -1.984373 v -1.719792 -1.719792 h 5.688543 5.68854 v 1.719792 1.719792 h -1.98437 -1.98438 v 11.773958 11.773959 h -1.71979 -1.71979 z m 12.96458,6.247307 c 0,-5.163746 -0.0449,-5.680617 -0.68438,-7.871355 -2.58731,-8.864234 -3.7673,-13.185667 -3.65155,-13.372946 0.0736,-0.119101 0.83785,-0.216548 1.69832,-0.216548 h 1.5645 l 0.38574,1.389063 c 0.21216,0.763984 0.82562,3.264297 1.36325,5.55625 0.53762,2.291953 1.05197,4.166315 1.143,4.16525 0.091,-0.0011 0.68553,-2.293019 1.32112,-5.09323 0.6356,-2.80021 1.26487,-5.29965 1.39838,-5.554312 0.18555,-0.353934 0.57971,-0.463021 1.67302,-0.463021 0.78666,0 1.5031,0.117818 1.5921,0.261817 0.089,0.143999 -0.85648,3.821172 -2.10105,8.171496 l -2.26287,7.90968 v 5.322254 5.322254 h -1.71979 -1.71979 z"
             id="path5774-4"
             sodipodi:nodetypes="ssssssssscsscscsssccsssssssssccssscccssscssccccscccccccccccccccccccccccccccssscccssscscsssscccssssssscsscccccccccccccccccsssscsscssssscccccs" />
          <path
             style="fill:#ffffff;fill-opacity:1;stroke-width:0.264583"
             d="m 7.6181506,74.508613 c 0.25954,-1.497846 0.84997,-5.104604 1.3120803,-8.01502 0.4621097,-2.910417 1.1182791,-6.958543 1.4581591,-8.995835 0.33987,-2.037291 0.70109,-4.385214 0.8027,-5.217604 0.10162,-0.832391 0.33879,-1.641274 0.52705,-1.797519 0.19928,-0.165388 1.20951,-0.251606 2.4179,-0.206354 l 2.0756,0.07773 0.854965,5.291667 c 0.470228,2.910417 1.22274,7.613386 1.672248,10.451043 0.830006,5.23966 1.467955,9.057873 1.737224,10.397527 l 0.148786,0.740236 -1.807339,-0.07878 -1.807339,-0.07878 -0.166775,-1.190625 C 16.75171,75.231456 16.52995,73.653877 16.35066,72.38057 L 16.0247,70.065466 h -2.20542 -2.20542 l -0.15652,1.124479 c -0.0861,0.618464 -0.30378,2.196042 -0.48377,3.505729 l -0.32725,2.38125 -1.7500191,0.07752 -1.75003,0.07752 z M 15.33319,66.754681 c 0.0747,-0.07468 0.0343,-0.818823 -0.0898,-1.653646 -0.69914,-4.705236 -1.37144,-8.791414 -1.43584,-8.727007 -0.0726,0.07261 -1.03743,5.933155 -1.31752,8.002898 -0.0788,0.582083 -0.20584,1.385755 -0.28237,1.785937 -0.13911,0.727402 -0.13872,0.727605 1.42527,0.727605 0.86044,0 1.62553,-0.0611 1.70021,-0.135787 z m 6.366134,-2.973068 0.06857,-13.427605 3.175,0.02485 c 3.63813,0.02848 4.718578,0.353552 5.759973,1.733013 0.940267,1.245504 1.248306,2.611282 1.25001,5.542274 0.0017,2.963635 -0.437154,4.671294 -1.559476,6.067873 l -0.796971,0.991725 1.429469,5.387841 c 0.786208,2.963314 1.546555,5.774795 1.689659,6.247738 l 0.260189,0.859896 H 31.070339 29.164931 L 27.745142,71.54358 c -0.780885,-3.116101 -1.510467,-5.812357 -1.621295,-5.99168 -0.110828,-0.179322 -0.392115,-0.252897 -0.625083,-0.163499 -0.370646,0.14223 -0.423578,0.890976 -0.423578,5.99168 v 5.829137 H 23.35297 21.630753 Z m 5.940795,-2.291712 c 0.712586,-0.612475 0.745486,-0.747767 0.820332,-3.373437 0.06767,-2.373786 0.007,-2.849041 -0.459132,-3.595268 C 27.524206,53.757346 27.330792,53.6613 26.2697,53.6613 h -1.194514 v 4.233333 4.233334 h 0.911287 c 0.581522,0 1.179924,-0.230895 1.653646,-0.638066 z m 9.076733,3.945358 V 53.6613 h -1.984375 -1.984375 v -1.719792 -1.719792 h 5.688542 5.688541 V 51.941508 53.6613 H 42.14081 40.156436 v 11.773959 11.773959 h -1.719792 -1.719792 z"
             id="path10490-0" />
        </g>
        <path
           style="fill:#ffffff;fill-opacity:1;stroke-width:0.281059"
           d="m 24.457778,106.63797 c -0.722763,-1.50705 -0.922267,-1.71213 -1.809035,-1.85955 -1.362249,-0.22648 -2.985445,-1.87611 -3.582356,-3.6407 -1.062395,-3.140667 -1.259394,-9.907707 -0.418429,-14.373447 0.384159,-2.03999 1.624347,-4.06128 2.892069,-4.71356 1.19135,-0.61298 4.319191,-0.6937 5.584814,-0.14412 1.312373,0.56988 2.46441,2.06115 3.040377,3.93567 0.683799,2.22545 0.77405,11.99014 0.132059,14.287497 -0.47292,1.69234 -1.616449,3.58008 -2.447191,4.03985 -0.722661,0.39995 -0.726329,0.75058 -0.02076,1.98996 0.307348,0.5399 0.652283,1.24953 0.766524,1.57695 0.199233,0.57103 0.135636,0.59532 -1.558989,0.59532 h -1.766697 l -0.812349,-1.69387 z m 1.442774,-5.00555 c 0.992557,-0.8796 1.371051,-3.248677 1.363705,-8.535787 -0.01016,-7.37845 -0.965644,-9.61159 -3.712407,-8.67751 -1.391859,0.47332 -2.121754,4.7032 -1.843993,10.68631 0.188423,4.05894 0.741641,6.408247 1.615274,6.859477 0.857,0.44264 1.846849,0.31495 2.577421,-0.33249 z m -17.89991,2.92911 c -0.07876,-0.1819 -0.108103,-5.390877 -0.06522,-11.575517 l 0.07797,-11.24479 4.419654,-0.0733 4.419654,-0.0733 -0.0905,1.39622 -0.0905,1.39622 -2.612401,0.0764 -2.612402,0.0764 v 3.41815 3.41815 l 2.313845,0.0773 2.313845,0.0773 0.09095,1.25677 0.09095,1.25677 h -2.404841 -2.40484 v 3.96875 3.968747 h 2.687047 2.687046 v 1.45521 1.4552 H 12.48239 c -3.195377,0 -4.376233,-0.0871 -4.481706,-0.33073 z m 27.027902,-0.26458 c -2.309207,-1.39069 -2.731495,-3.79465 -2.614331,-14.882807 l 0.08102,-7.67292 1.70618,-0.0791 1.706168,-0.0791 0.0852,9.77504 c 0.08,9.182057 0.119692,9.808797 0.653941,10.331667 0.312809,0.30615 0.930167,0.55664 1.371886,0.55664 0.441731,0 1.059078,-0.25049 1.371898,-0.55664 0.534216,-0.52284 0.573925,-1.14937 0.653896,-10.318747 l 0.0852,-9.76211 h 1.645008 1.645008 l -0.08802,9.98802 c -0.08666,9.829587 -0.09896,10.006017 -0.771883,11.122877 -0.969774,1.60946 -2.150337,2.17023 -4.571494,2.17144 -1.553426,7.7e-4 -2.180601,-0.12516 -2.959627,-0.59432 z M 45.781243,93.250603 v -11.64167 h 1.642085 1.642086 v 11.64167 11.641657 h -1.642086 -1.642085 z m 5.374091,0 v -11.64167 h 1.642086 1.642086 v 10.18646 10.186457 h 2.537757 2.537768 v 1.45521 1.4552 h -4.179843 -4.179854 z m 9.852504,0 v -11.64167 h 1.642086 1.642086 v 11.64167 11.641657 h -1.642086 -1.642086 z m 5.374093,0.006 v -11.69112 l 3.708863,0.0877 c 3.475992,0.0822 3.758965,0.12925 4.506779,0.74918 1.266659,1.05004 1.699381,2.06329 1.857272,4.34892 0.17624,2.55122 -0.233496,4.09084 -1.39535,5.24319 -0.844178,0.83728 -0.844891,0.84108 -0.209264,1.11502 0.35079,0.15118 0.948814,0.81025 1.32894,1.4646 0.618505,1.06469 0.680624,1.4817 0.591067,3.96785 -0.08527,2.367327 -0.209551,2.950717 -0.840421,3.945317 -1.274873,2.00989 -1.904145,2.25861 -5.98697,2.36641 l -3.560916,0.094 V 93.256563 Z m 5.96948,8.461187 c 1.434942,-0.68056 1.404644,-6.179827 -0.03983,-7.224057 -0.398151,-0.28783 -1.022527,-0.44491 -1.577585,-0.39688 l -0.918646,0.0795 -0.0826,3.9026 -0.0826,3.902607 h 1.072573 c 0.589915,0 1.322834,-0.1187 1.628703,-0.26377 z m -0.01975,-10.565077 c 0.686778,-0.60862 1.039364,-2.41419 0.855375,-4.38034 -0.172682,-1.84542 -0.57344,-2.25331 -2.213934,-2.25331 h -1.306968 v 3.57187 3.57188 h 1.044971 c 0.633856,0 1.271412,-0.20068 1.620556,-0.5101 z m 6.2913,2.06904 v -11.67022 l 3.358807,0.095 c 2.93861,0.0831 3.480761,0.17204 4.333636,0.71088 1.552871,0.98109 1.965033,1.95751 2.1031,4.98225 0.138536,3.03507 -0.352708,4.88463 -1.565539,5.89436 l -0.707314,0.58887 1.464342,4.93924 c 0.805388,2.716577 1.545691,5.207127 1.645113,5.534547 0.172718,0.56879 0.101332,0.59531 -1.602171,0.59531 h -1.782942 l -1.217951,-4.16718 c -0.669872,-2.291957 -1.334887,-4.583727 -1.477811,-5.092827 -0.149749,-0.5334 -0.473265,-0.96206 -0.763482,-1.01159 -0.458604,-0.0783 -0.503621,0.37696 -0.503621,5.09283 v 5.178767 h -1.642084 -1.642083 z m 5.564651,-1.92017 c 0.707807,-0.53954 0.838314,-0.86705 0.946718,-2.37577 0.232077,-3.22988 -0.35641,-4.40675 -2.203565,-4.40675 h -1.023637 v 3.70416 3.70417 h 0.729753 c 0.401365,0 1.099194,-0.28161 1.550731,-0.62581 z m 6.875379,13.413997 c -0.109468,-0.097 -0.199042,-5.335757 -0.199042,-11.641657 v -11.46528 h 1.642084 1.642084 v 11.64167 11.641657 h -1.443043 c -0.793675,0 -1.532613,-0.0794 -1.642083,-0.17639 z m 8.309938,-0.076 c -0.86493,-0.31704 -1.833843,-1.3195 -2.444665,-2.52931 -0.472996,-0.93683 -0.543865,-2.141607 -0.634003,-10.778157 l -0.101479,-9.72344 h 1.633864 1.633865 l 0.123969,9.45885 c 0.133489,10.185127 0.222018,10.767997 1.68495,11.093387 0.9762,0.21712 2.20056,-0.39956 2.46511,-1.24163 0.11361,-0.36162 0.21995,-4.854437 0.23632,-9.984047 l 0.0298,-9.32656 h 1.64209 1.64208 v 9.07254 c 0,7.19501 -0.0923,9.386617 -0.44608,10.590257 -0.83614,2.84481 -1.92438,3.63108 -4.98783,3.60376 -1.03445,-0.009 -2.149532,-0.11526 -2.477947,-0.23565 z m 10.200821,0.076 c -0.10946,-0.097 -0.19904,-5.335757 -0.19904,-11.641657 v -11.46528 h 2.51153 2.51152 l 0.17052,0.99219 c 0.0938,0.5457 0.64675,4.56406 1.22879,8.92969 0.58205,4.36562 1.10606,8.05656 1.16448,8.20208 0.2266,0.564437 0.46802,-0.79933 1.49881,-8.46667 0.58691,-4.36562 1.14,-8.32445 1.22908,-8.79739 l 0.16196,-0.8599 h 2.37495 2.37496 v 11.64167 11.641657 h -1.4928 -1.49281 v -8.466657 c 0,-4.65667 -0.10657,-8.46667 -0.23683,-8.46667 -0.13025,0 -0.75028,3.48258 -1.37784,7.73906 -0.62755,4.25649 -1.20953,8.066487 -1.29329,8.466667 -0.14287,0.6826 -0.24782,0.7276 -1.69693,0.7276 h -1.54464 l -1.30991,-8.598947 c -0.72045,-4.72943 -1.41927,-8.59896 -1.55292,-8.59896 -0.13366,0 -0.24302,3.86953 -0.24302,8.59896 v 8.598947 h -1.29376 c -0.71157,0 -1.38334,-0.0794 -1.49281,-0.17639 z"
           id="path22100-6-4" />
      </g>
    </g>
    <g
       id="g64860"
       transform="translate(-149.68764,1020.241)"
       inkscape:export-filename="E:\Trabajo\Aplicaciones\Art Beauty Equilibrium Barbershop Salon Makeup Studio\Citas\fichaPS\icon.png"
       inkscape:export-xdpi="96.000008"
       inkscape:export-ydpi="96.000008">
      <path
         style="fill:#ffffff;fill-opacity:1;stroke-width:0.404984"
         d="m -50.877183,-552.18157 c -1.041446,-2.17154 -1.328916,-2.46704 -2.60668,-2.67946 -1.962896,-0.32634 -4.301797,-2.70333 -5.1619,-5.24597 -1.530829,-4.52546 -1.814689,-14.27625 -0.602924,-20.71103 0.553544,-2.93947 2.34056,-5.852 4.167249,-6.79188 1.716644,-0.88326 6.223623,-0.99957 8.047288,-0.20767 1.891029,0.82116 3.551025,2.96996 4.380949,5.671 0.985302,3.2067 1.115347,17.27687 0.190287,20.58718 -0.681441,2.43854 -2.329178,5.15862 -3.526214,5.82112 -1.041299,0.57629 -1.046584,1.08153 -0.02991,2.86738 0.442865,0.77795 0.939889,1.80047 1.104502,2.27226 0.287079,0.82281 0.195441,0.85781 -2.246383,0.85781 h -2.545675 l -1.170532,-2.44074 z m 2.078927,-7.21261 c 1.430198,-1.26743 1.975579,-4.68109 1.964994,-12.29941 -0.01464,-10.63178 -1.391419,-13.84956 -5.349293,-12.50363 -2.005562,0.68202 -3.057285,6.77695 -2.657052,15.39816 0.271503,5.84862 1.068647,9.23379 2.327485,9.88397 1.234871,0.63781 2.661168,0.45382 3.713866,-0.47909 z m -25.792394,4.22062 c -0.113487,-0.2621 -0.155768,-7.76784 -0.09398,-16.67943 l 0.112349,-16.20287 6.368381,-0.10562 6.368382,-0.10562 -0.130404,2.01184 -0.130403,2.01185 -3.764269,0.11008 -3.764271,0.11009 v 4.92529 4.92529 l 3.334073,0.11139 3.334073,0.11138 0.131052,1.81091 0.131052,1.81091 h -3.465191 -3.46519 v 5.71866 5.71866 h 3.871828 3.871827 v 2.09685 2.09683 h -6.251458 c -4.604292,0 -6.305815,-0.12551 -6.457794,-0.47656 z m 38.945128,-0.38124 c -3.32739,-2.00387 -3.935874,-5.46779 -3.76705,-21.44498 l 0.116744,-11.05608 2.458474,-0.11398 2.458457,-0.11398 0.122767,14.08508 c 0.115273,13.23064 0.172467,14.13373 0.942278,14.88714 0.450734,0.44114 1.340299,0.80208 1.976782,0.80208 0.636501,0 1.52605,-0.36094 1.9768,-0.80208 0.769764,-0.75337 0.826982,-1.65615 0.942214,-14.86852 l 0.122767,-14.06645 h 2.37033 2.37033 l -0.12683,14.39197 c -0.124871,14.16368 -0.142594,14.4179 -1.112225,16.02721 -1.397369,2.31911 -3.09847,3.12713 -6.587171,3.12888 -2.238367,0.001 -3.142078,-0.18035 -4.264595,-0.85637 z m 15.493813,-15.91693 v -16.77475 h 2.366118 2.366119 v 16.77475 16.77473 h -2.366119 -2.366118 z m 7.743651,0 v -16.77475 h 2.36612 2.3661197 v 14.6779 14.6779 h 3.6567127 3.65672857 v 2.09685 2.09683 H -6.3852094 -12.408058 Z m 14.1967011,0 v -16.77475 h 2.3661196 2.3661197 v 16.77475 16.77473 H 4.1547627 1.7886431 Z m 7.7436547,0.009 v -16.846 l 5.3441862,0.12637 c 5.008637,0.11844 5.41638,0.18624 6.493922,1.07951 1.825158,1.51303 2.448677,2.97304 2.676186,6.26646 0.253949,3.67611 -0.33645,5.89458 -2.010592,7.55503 -1.216395,1.20646 -1.217423,1.21193 -0.301533,1.60666 0.505461,0.21784 1.367168,1.16751 1.9149,2.11038 0.891218,1.53413 0.980727,2.13501 0.851682,5.71736 -0.122867,3.41114 -0.301947,4.25176 -1.210982,5.6849 -1.836994,2.8961 -2.743726,3.25448 -8.626763,3.40982 l -5.1310062,0.13544 v -16.84598 z m 8.6015612,12.19192 c 2.067642,-0.98063 2.023984,-8.90465 -0.05739,-10.40931 -0.573705,-0.41474 -1.473382,-0.64108 -2.273178,-0.57187 l -1.323698,0.11455 -0.119021,5.62335 -0.11902,5.62336 h 1.545495 c 0.850022,0 1.906102,-0.17104 2.346836,-0.38008 z m -0.02846,-15.22346 c 0.989594,-0.87697 1.497644,-3.47866 1.23253,-6.31173 -0.248822,-2.65911 -0.826283,-3.24685 -3.190109,-3.24685 h -1.88324 v 5.14679 5.1468 h 1.505723 c 0.913337,0 1.832007,-0.28916 2.335096,-0.73501 z m 9.06528,2.98133 v -16.81589 l 4.839782,0.13689 c 4.234311,0.11974 5.015509,0.24789 6.244437,1.02432 2.237567,1.41367 2.831461,2.82062 3.030405,7.17904 0.19962,4.3733 -0.508225,7.03837 -2.255821,8.49332 l -1.019186,0.84851 2.110005,7.11707 c 1.160502,3.91438 2.227222,7.50307 2.370481,7.97486 0.248873,0.81958 0.146012,0.85779 -2.308605,0.85779 h -2.569082 l -1.754974,-6.00458 c -0.965234,-3.30254 -1.92347,-6.6048 -2.129412,-7.33838 -0.215777,-0.76858 -0.681939,-1.38625 -1.100119,-1.45762 -0.660813,-0.11282 -0.725679,0.54317 -0.725679,7.33838 v 7.4622 h -2.366117 -2.366115 z m 8.018234,-2.76682 c 1.019895,-0.77744 1.207946,-1.24935 1.364148,-3.4233 0.334405,-4.65401 -0.51356,-6.34979 -3.175168,-6.34979 h -1.474982 v 5.33741 5.33742 h 1.051518 c 0.578336,0 1.583854,-0.40577 2.234484,-0.90174 z m 9.906892,19.32854 c -0.157735,-0.13977 -0.286804,-7.68842 -0.286804,-16.77473 v -16.52059 h 2.366117 2.366117 v 16.77475 16.77473 h -2.079314 c -1.143625,0 -2.208378,-0.11441 -2.366116,-0.25416 z m 11.973982,-0.10951 c -1.246298,-0.45683 -2.642427,-1.9013 -3.522574,-3.64454 -0.681551,-1.3499 -0.783668,-3.08589 -0.91355,-15.5305 L 52.48744,-588.2465 h 2.354272 2.354274 l 0.17863,13.62948 c 0.192347,14.67598 0.31991,15.51585 2.427883,15.98472 1.406629,0.31285 3.170838,-0.57574 3.552034,-1.7891 0.163703,-0.52106 0.316931,-6.99487 0.340519,-14.38624 l 0.04294,-13.43886 h 2.366126 2.366111 v 13.07283 c 0,10.36746 -0.132997,13.5254 -0.642767,15.25975 -1.204814,4.09915 -2.772884,5.23211 -7.18708,5.19274 -1.490563,-0.013 -3.09731,-0.16608 -3.570531,-0.33955 z m 14.698599,0.10951 c -0.157724,-0.13977 -0.286802,-7.68842 -0.286802,-16.77473 v -16.52059 h 3.618922 3.618907 l 0.245706,1.42967 c 0.135159,0.78631 0.931917,6.57646 1.770592,12.86699 0.838689,6.29053 1.593747,11.60889 1.677926,11.81857 0.326513,0.81331 0.674381,-1.15177 2.15967,-12.19982 0.845692,-6.29052 1.642652,-11.99489 1.77101,-12.67636 l 0.233372,-1.23905 h 3.42212 3.422135 v 16.77475 16.77473 h -2.15101 -2.151025 v -12.1998 c 0,-6.7099 -0.153559,-12.19982 -0.341253,-12.19982 -0.187681,0 -1.081096,5.01813 -1.985362,11.15139 -0.904251,6.13328 -1.74284,11.62319 -1.863531,12.19982 -0.205865,0.98357 -0.35709,1.04841 -2.445146,1.04841 H 80.25891 l -1.88748,-12.39042 c -1.038113,-6.81474 -2.045059,-12.39044 -2.237638,-12.39044 -0.192594,0 -0.350173,5.5757 -0.350173,12.39044 v 12.39042 H 73.91941 c -1.025318,0 -1.993287,-0.11441 -2.151024,-0.25416 z"
         id="path22100-6-4-6" />
      <rect
         style="fill:none;fill-opacity:1;stroke-width:0.167418"
         id="rect64644"
         width="270.93332"
         height="270.93332"
         x="-126.11222"
         y="-727.13458" />
      <path
         style="fill:#ffffff;fill-opacity:1;stroke-width:0.381244"
         d="m 44.059219,-594.81688 c -2.192512,-0.81798 -3.225566,-2.01296 -4.135361,-4.78358 -0.772663,-2.35301 -0.830441,-3.40552 -0.982355,-17.89534 -0.132306,-12.61881 -0.06886,-15.45393 0.351728,-15.72048 0.593856,-0.37636 3.408332,-0.44549 4.294396,-0.10547 0.536309,0.2058 0.603049,1.95817 0.603049,15.83389 0,12.68776 0.102133,15.84691 0.546743,16.91101 0.596307,1.42716 1.816635,1.9719 3.481446,1.55406 1.968969,-0.49418 2.071719,-1.41163 2.071719,-18.4986 v -15.636 l 0.89414,-0.22442 c 0.491778,-0.12343 1.564027,-0.16958 2.382775,-0.10258 l 1.488638,0.12185 0.0997,15.41401 c 0.08262,12.77402 7.62e-4,15.80077 -0.478824,17.67219 -0.677863,2.64596 -1.719106,4.25035 -3.283496,5.05932 -1.639404,0.84777 -5.560985,1.06172 -7.334293,0.40014 z m -58.580158,-19.06682 v -19.27369 l 0.979263,-0.24578 c 1.994029,-0.50047 9.0681991,0.0497 10.6507621,0.82828 2.21694951,1.09073 3.2808839,3.42352 3.52656273,7.73237 0.24975088,4.38026 -0.35095267,6.94704 -2.07151423,8.85149 -1.2387256,1.37113 -1.2623337,1.45002 -0.505777,1.69014 0.4364815,0.13853 1.25878751,0.95482 1.82734839,1.81398 0.99666634,1.50606 1.03374705,1.74771 1.03374705,6.73674 0,5.03608 -0.0306196,5.22998 -1.14373271,7.24171 -1.89016833,3.4161 -2.39166433,3.63136 -8.79505163,3.77502 l -5.5016077,0.12345 z m 9.6559388,13.41226 c 1.4448554,-1.94219 1.2948279,-9.02246 -0.2355289,-11.11535 -0.3152063,-0.43107 -1.1849994,-0.77046 -2.2952637,-0.8956 l -1.787726,-0.2015 v 6.74224 6.74225 l 1.7725473,-0.1162 c 1.4120124,-0.0926 1.9298629,-0.32766 2.5459713,-1.15584 z m -0.5633029,-17.09587 c 0.9084688,-0.97512 1.2009589,-2.36702 1.2009589,-5.71509 0,-2.66479 -0.4639109,-4.50702 -1.2628941,-5.01506 -0.2489872,-0.15832 -1.1818336,-0.29048 -2.0729927,-0.29369 l -1.6202878,-0.006 v 5.90929 5.90928 h 1.5101249 c 1.0360223,0 1.7408686,-0.24767 2.2450908,-0.78889 z m 9.2989064,3.55291 0.098804,-19.34814 h 6.2905297 6.29053 v 2.28746 2.28747 l -3.907753,0.10865 -3.9077532,0.10864 v 5.89595 5.89595 h 3.4311982 3.431198 v 2.09684 2.09685 H 12.166159 8.7349609 v 6.67177 6.67177 h 4.0030641 4.003065 v 2.28747 2.28746 H 10.256445 3.7717978 Z m 14.5931607,18.29973 c 0.09824,-0.57663 0.699392,-4.30806 1.335872,-8.29206 2.368943,-14.82823 3.137798,-19.56777 3.958135,-24.39964 l 0.841442,-4.95617 3.28456,-0.10971 3.284559,-0.10971 0.404619,2.01593 c 0.22254,1.10877 0.749324,4.24622 1.17063,6.97212 0.421302,2.72589 1.287923,8.21581 1.925821,12.19981 1.89149,11.81328 2.650555,16.74575 2.654839,17.2513 0.0027,0.33104 -0.726425,0.47656 -2.388239,0.47656 h -2.392277 l -0.708706,-4.67024 c -0.389792,-2.56864 -0.789881,-4.88469 -0.889089,-5.1468 -0.123083,-0.32519 -1.126519,-0.47656 -3.159253,-0.47656 -3.437347,0 -2.931851,-0.77701 -4.030384,6.19522 l -0.645729,4.09838 H 20.697846 18.28513 Z m 11.620875,-14.57431 c 0,-0.41481 -0.331619,-2.85954 -0.73693,-5.43273 -0.405309,-2.57319 -0.850309,-5.57922 -0.988883,-6.68006 -0.138573,-1.10084 -0.378975,-2.00153 -0.534215,-2.00153 -0.155242,0 -0.668512,2.70207 -1.140603,6.0046 -0.472091,3.30252 -0.952023,6.64794 -1.066522,7.43426 l -0.208176,1.42967 h 2.337664 c 2.074945,0 2.337665,-0.0848 2.337665,-0.75421 z m 33.168253,-1.34264 v -16.96537 h -2.859339 -2.859329 v -2.47809 -2.47808 h 8.196753 8.196748 v 2.47808 2.47809 h -2.859324 -2.859339 v 16.96537 16.96537 h -2.478085 -2.478085 z m 18.680962,9.00189 c 0,-7.44056 -0.0647,-8.18533 -0.986139,-11.34202 -3.728114,-12.77268 -5.428389,-18.99953 -5.261602,-19.26938 0.106052,-0.17162 1.207277,-0.31203 2.447148,-0.31203 h 2.254324 l 0.555822,2.00153 c 0.305706,1.10084 1.189655,4.7036 1.964338,8.00613 0.77467,3.30253 1.515808,6.00334 1.646976,6.0018 0.131124,-0.002 0.987796,-3.30406 1.903632,-7.33895 0.915851,-4.03489 1.82258,-7.63639 2.014958,-8.00334 0.267363,-0.50999 0.835317,-0.66717 2.410693,-0.66717 1.133517,0 2.165852,0.16976 2.294094,0.37725 0.128242,0.2075 -1.234122,5.50602 -3.027452,11.7745 l -3.260621,11.39724 v 7.66896 7.66896 h -2.478086 -2.478085 z"
         id="path5774-4-0"
         sodipodi:nodetypes="ssssssssscsscscsssccsssssssssccssscccssscssccccscccccccccccccccccccccccccccssscccssscscsssscccssssssscsscccccccccccccccccsssscsscssssscccccs" />
      <path
         style="fill:#ffffff;fill-opacity:1;stroke-width:0.381244"
         d="m -73.797641,-598.4775 c 0.373977,-2.15828 1.224742,-7.35534 1.890607,-11.54903 0.665865,-4.19368 1.611354,-10.02672 2.101095,-12.9623 0.489727,-2.93558 1.010217,-6.31876 1.156629,-7.51817 0.146427,-1.19941 0.48817,-2.36495 0.759439,-2.59009 0.287147,-0.23831 1.742811,-0.36254 3.484008,-0.29734 l 2.99078,0.11201 1.231938,7.62488 c 0.677563,4.19369 1.761875,10.97031 2.409581,15.05915 1.195975,7.54995 2.11521,13.0517 2.503206,14.98204 l 0.21439,1.06662 -2.604237,-0.11351 -2.604236,-0.11352 -0.24031,-1.7156 c -0.132133,-0.94358 -0.451672,-3.21675 -0.710015,-5.05148 l -0.469684,-3.33589 h -3.17784 -3.177841 l -0.225533,1.62029 c -0.124064,0.89116 -0.437724,3.16432 -0.697075,5.05148 l -0.471543,3.4312 -2.521643,0.1117 -2.521658,0.1117 z m 11.116779,-11.17282 c 0.107637,-0.10761 0.04942,-1.17986 -0.129395,-2.38277 -1.007407,-6.77989 -1.97614,-12.66776 -2.068935,-12.57495 -0.104611,0.10462 -1.494857,8.54922 -1.898445,11.53156 -0.113545,0.83874 -0.2966,1.99677 -0.406874,2.5734 -0.200447,1.04813 -0.199885,1.04842 2.053705,1.04842 1.239828,0 2.342263,-0.088 2.449872,-0.19566 z m 9.173109,-4.28396 0.0988,-19.34815 4.574931,0.0358 c 5.242266,0.041 6.799108,0.50944 8.299678,2.49714 1.354853,1.79467 1.798713,3.76266 1.801169,7.98599 0.0024,4.27037 -0.629906,6.73097 -2.247085,8.74334 l -1.148374,1.429 2.059755,7.76346 c 1.132865,4.26991 2.228466,8.32104 2.434668,9.00251 l 0.374913,1.23905 h -2.745547 -2.745546 l -2.045807,-8.16375 c -1.125195,-4.49006 -2.176467,-8.37516 -2.336161,-8.63355 -0.159695,-0.25839 -0.565008,-0.36441 -0.900697,-0.23559 -0.534072,0.20494 -0.610343,1.28383 -0.610343,8.63355 v 8.39934 h -2.481581 -2.481582 z m 8.560229,-3.30218 c 1.026782,-0.88253 1.074188,-1.07748 1.182035,-4.86086 0.09751,-3.42045 0.01009,-4.10525 -0.661574,-5.18051 -0.687483,-1.10065 -0.966177,-1.23904 -2.495129,-1.23904 h -1.721203 v 6.0999 6.09991 h 1.313094 c 0.837929,0 1.70018,-0.3327 2.382777,-0.9194 z m 13.078874,5.68496 v -16.96537 h -2.859332 -2.859331 v -2.47809 -2.47809 h 8.196751 8.19675 v 2.47809 2.47809 h -2.859331 -2.859331 v 16.96537 16.96537 h -2.478088 -2.478088 z"
         id="path10490-0-2" />
    </g>
    <rect
       style="fill:#fecc01;stroke-width:0.264583;fill-opacity:1"
       id="rect891"
       width="402.24063"
       height="898.02557"
       x="-3082.2856"
       y="-1010.2788" />
  </g>
</svg>
