{
  "project_info": {
    "project_number": "328252660508",
    "firebase_url": "https://slamart.firebaseio.com",
    "project_id": "slamart",
    "storage_bucket": "slamart.appspot.com"
  },
  "client": [
    {
      "client_info": {
        "mobilesdk_app_id": "1:328252660508:android:c0084abe6392db51bb78d9",
        "android_client_info": {
          "package_name": "io.slamart.artbeautyequilibrium"
        }
      },
      "oauth_client": [
        {
          "client_id": "328252660508-9hkrjv2fluuig1dqqrnorg5tf1jhdqf0.apps.googleusercontent.com",
          "client_type": 3
        }
      ],
      "api_key": [
        {
          "current_key": "AIzaSyClXc-vBt4PHGq08rYFStD6RutEv3j6bhE"
        }
      ],
      "services": {
        "appinvite_service": {
          "other_platform_oauth_client": [
            {
              "client_id": "328252660508-9hkrjv2fluuig1dqqrnorg5tf1jhdqf0.apps.googleusercontent.com",
              "client_type": 3
            },
            {
              "client_id": "328252660508-0e3bdbmihvar2j77oejfn8gnh1sd7sni.apps.googleusercontent.com",
              "client_type": 2,
              "ios_info": {
                "bundle_id": "io.slamart.santamonicahair"
              }
            }
          ]
        }
      }
    },
    {
      "client_info": {
        "mobilesdk_app_id": "1:328252660508:android:759424df3af64719bb78d9",
        "android_client_info": {
          "package_name": "io.slamart.authenticimage"
        }
      },
      "oauth_client": [
        {
          "client_id": "328252660508-9hkrjv2fluuig1dqqrnorg5tf1jhdqf0.apps.googleusercontent.com",
          "client_type": 3
        }
      ],
      "api_key": [
        {
          "current_key": "AIzaSyClXc-vBt4PHGq08rYFStD6RutEv3j6bhE"
        }
      ],
      "services": {
        "appinvite_service": {
          "other_platform_oauth_client": [
            {
              "client_id": "328252660508-9hkrjv2fluuig1dqqrnorg5tf1jhdqf0.apps.googleusercontent.com",
              "client_type": 3
            },
            {
              "client_id": "328252660508-0e3bdbmihvar2j77oejfn8gnh1sd7sni.apps.googleusercontent.com",
              "client_type": 2,
              "ios_info": {
                "bundle_id": "io.slamart.santamonicahair"
              }
            }
          ]
        }
      }
    },
    {
      "client_info": {
        "mobilesdk_app_id": "1:328252660508:android:c552a8839fbadad8bb78d9",
        "android_client_info": {
          "package_name": "io.slamart.cvlicojvck"
        }
      },
      "oauth_client": [
        {
          "client_id": "328252660508-9hkrjv2fluuig1dqqrnorg5tf1jhdqf0.apps.googleusercontent.com",
          "client_type": 3
        }
      ],
      "api_key": [
        {
          "current_key": "AIzaSyClXc-vBt4PHGq08rYFStD6RutEv3j6bhE"
        }
      ],
      "services": {
        "appinvite_service": {
          "other_platform_oauth_client": [
            {
              "client_id": "328252660508-9hkrjv2fluuig1dqqrnorg5tf1jhdqf0.apps.googleusercontent.com",
              "client_type": 3
            },
            {
              "client_id": "328252660508-0e3bdbmihvar2j77oejfn8gnh1sd7sni.apps.googleusercontent.com",
              "client_type": 2,
              "ios_info": {
                "bundle_id": "io.slamart.santamonicahair"
              }
            }
          ]
        }
      }
    },
    {
      "client_info": {
        "mobilesdk_app_id": "1:328252660508:android:9d81c9b3eed67e1bbb78d9",
        "android_client_info": {
          "package_name": "io.slamart.endosolutions"
        }
      },
      "oauth_client": [
        {
          "client_id": "328252660508-9hkrjv2fluuig1dqqrnorg5tf1jhdqf0.apps.googleusercontent.com",
          "client_type": 3
        }
      ],
      "api_key": [
        {
          "current_key": "AIzaSyClXc-vBt4PHGq08rYFStD6RutEv3j6bhE"
        }
      ],
      "services": {
        "appinvite_service": {
          "other_platform_oauth_client": [
            {
              "client_id": "328252660508-9hkrjv2fluuig1dqqrnorg5tf1jhdqf0.apps.googleusercontent.com",
              "client_type": 3
            },
            {
              "client_id": "328252660508-0e3bdbmihvar2j77oejfn8gnh1sd7sni.apps.googleusercontent.com",
              "client_type": 2,
              "ios_info": {
                "bundle_id": "io.slamart.santamonicahair"
              }
            }
          ]
        }
      }
    },
    {
      "client_info": {
        "mobilesdk_app_id": "1:328252660508:android:d0afcf7d52eadde2bb78d9",
        "android_client_info": {
          "package_name": "io.slamart.executivecutz"
        }
      },
      "oauth_client": [
        {
          "client_id": "328252660508-9hkrjv2fluuig1dqqrnorg5tf1jhdqf0.apps.googleusercontent.com",
          "client_type": 3
        }
      ],
      "api_key": [
        {
          "current_key": "AIzaSyClXc-vBt4PHGq08rYFStD6RutEv3j6bhE"
        }
      ],
      "services": {
        "appinvite_service": {
          "other_platform_oauth_client": [
            {
              "client_id": "328252660508-9hkrjv2fluuig1dqqrnorg5tf1jhdqf0.apps.googleusercontent.com",
              "client_type": 3
            },
            {
              "client_id": "328252660508-0e3bdbmihvar2j77oejfn8gnh1sd7sni.apps.googleusercontent.com",
              "client_type": 2,
              "ios_info": {
                "bundle_id": "io.slamart.santamonicahair"
              }
            }
          ]
        }
      }
    },
    {
      "client_info": {
        "mobilesdk_app_id": "1:328252660508:android:74dce97e3de4cecdbb78d9",
        "android_client_info": {
          "package_name": "io.slamart.hairaddicts"
        }
      },
      "oauth_client": [
        {
          "client_id": "328252660508-9hkrjv2fluuig1dqqrnorg5tf1jhdqf0.apps.googleusercontent.com",
          "client_type": 3
        }
      ],
      "api_key": [
        {
          "current_key": "AIzaSyClXc-vBt4PHGq08rYFStD6RutEv3j6bhE"
        }
      ],
      "services": {
        "appinvite_service": {
          "other_platform_oauth_client": [
            {
              "client_id": "328252660508-9hkrjv2fluuig1dqqrnorg5tf1jhdqf0.apps.googleusercontent.com",
              "client_type": 3
            },
            {
              "client_id": "328252660508-0e3bdbmihvar2j77oejfn8gnh1sd7sni.apps.googleusercontent.com",
              "client_type": 2,
              "ios_info": {
                "bundle_id": "io.slamart.santamonicahair"
              }
            }
          ]
        }
      }
    },
    {
      "client_info": {
        "mobilesdk_app_id": "1:328252660508:android:1fe6ae31d275d475bb78d9",
        "android_client_info": {
          "package_name": "io.slamart.happykidsdental"
        }
      },
      "oauth_client": [
        {
          "client_id": "328252660508-9hkrjv2fluuig1dqqrnorg5tf1jhdqf0.apps.googleusercontent.com",
          "client_type": 3
        }
      ],
      "api_key": [
        {
          "current_key": "AIzaSyClXc-vBt4PHGq08rYFStD6RutEv3j6bhE"
        }
      ],
      "services": {
        "appinvite_service": {
          "other_platform_oauth_client": [
            {
              "client_id": "328252660508-9hkrjv2fluuig1dqqrnorg5tf1jhdqf0.apps.googleusercontent.com",
              "client_type": 3
            },
            {
              "client_id": "328252660508-0e3bdbmihvar2j77oejfn8gnh1sd7sni.apps.googleusercontent.com",
              "client_type": 2,
              "ios_info": {
                "bundle_id": "io.slamart.santamonicahair"
              }
            }
          ]
        }
      }
    },
    {
      "client_info": {
        "mobilesdk_app_id": "1:328252660508:android:6a36d6ae6b0029d2bb78d9",
        "android_client_info": {
          "package_name": "io.slamart.luxgroom"
        }
      },
      "oauth_client": [
        {
          "client_id": "328252660508-9hkrjv2fluuig1dqqrnorg5tf1jhdqf0.apps.googleusercontent.com",
          "client_type": 3
        }
      ],
      "api_key": [
        {
          "current_key": "AIzaSyClXc-vBt4PHGq08rYFStD6RutEv3j6bhE"
        }
      ],
      "services": {
        "appinvite_service": {
          "other_platform_oauth_client": [
            {
              "client_id": "328252660508-9hkrjv2fluuig1dqqrnorg5tf1jhdqf0.apps.googleusercontent.com",
              "client_type": 3
            },
            {
              "client_id": "328252660508-0e3bdbmihvar2j77oejfn8gnh1sd7sni.apps.googleusercontent.com",
              "client_type": 2,
              "ios_info": {
                "bundle_id": "io.slamart.santamonicahair"
              }
            }
          ]
        }
      }
    },
    {
      "client_info": {
        "mobilesdk_app_id": "1:328252660508:android:f0b744ad3b0a48c3bb78d9",
        "android_client_info": {
          "package_name": "io.slamart.presidentialbarber"
        }
      },
      "oauth_client": [
        {
          "client_id": "328252660508-9hkrjv2fluuig1dqqrnorg5tf1jhdqf0.apps.googleusercontent.com",
          "client_type": 3
        }
      ],
      "api_key": [
        {
          "current_key": "AIzaSyClXc-vBt4PHGq08rYFStD6RutEv3j6bhE"
        }
      ],
      "services": {
        "appinvite_service": {
          "other_platform_oauth_client": [
            {
              "client_id": "328252660508-9hkrjv2fluuig1dqqrnorg5tf1jhdqf0.apps.googleusercontent.com",
              "client_type": 3
            },
            {
              "client_id": "328252660508-0e3bdbmihvar2j77oejfn8gnh1sd7sni.apps.googleusercontent.com",
              "client_type": 2,
              "ios_info": {
                "bundle_id": "io.slamart.santamonicahair"
              }
            }
          ]
        }
      }
    },
    {
      "client_info": {
        "mobilesdk_app_id": "1:328252660508:android:1d6865084c6dfa06bb78d9",
        "android_client_info": {
          "package_name": "io.slamart.santamonicahair"
        }
      },
      "oauth_client": [
        {
          "client_id": "328252660508-9hkrjv2fluuig1dqqrnorg5tf1jhdqf0.apps.googleusercontent.com",
          "client_type": 3
        }
      ],
      "api_key": [
        {
          "current_key": "AIzaSyClXc-vBt4PHGq08rYFStD6RutEv3j6bhE"
        }
      ],
      "services": {
        "appinvite_service": {
          "other_platform_oauth_client": [
            {
              "client_id": "328252660508-9hkrjv2fluuig1dqqrnorg5tf1jhdqf0.apps.googleusercontent.com",
              "client_type": 3
            },
            {
              "client_id": "328252660508-0e3bdbmihvar2j77oejfn8gnh1sd7sni.apps.googleusercontent.com",
              "client_type": 2,
              "ios_info": {
                "bundle_id": "io.slamart.santamonicahair"
              }
            }
          ]
        }
      }
    },
    {
      "client_info": {
        "mobilesdk_app_id": "1:328252660508:android:e46e25210bacdb54bb78d9",
        "android_client_info": {
          "package_name": "io.slamart.spartanbarbershop"
        }
      },
      "oauth_client": [
        {
          "client_id": "328252660508-9hkrjv2fluuig1dqqrnorg5tf1jhdqf0.apps.googleusercontent.com",
          "client_type": 3
        }
      ],
      "api_key": [
        {
          "current_key": "AIzaSyClXc-vBt4PHGq08rYFStD6RutEv3j6bhE"
        }
      ],
      "services": {
        "appinvite_service": {
          "other_platform_oauth_client": [
            {
              "client_id": "328252660508-9hkrjv2fluuig1dqqrnorg5tf1jhdqf0.apps.googleusercontent.com",
              "client_type": 3
            },
            {
              "client_id": "328252660508-0e3bdbmihvar2j77oejfn8gnh1sd7sni.apps.googleusercontent.com",
              "client_type": 2,
              "ios_info": {
                "bundle_id": "io.slamart.santamonicahair"
              }
            }
          ]
        }
      }
    },
    {
      "client_info": {
        "mobilesdk_app_id": "1:328252660508:android:3467d97e1467ff6bbb78d9",
        "android_client_info": {
          "package_name": "io.slamart.straightup"
        }
      },
      "oauth_client": [
        {
          "client_id": "328252660508-9hkrjv2fluuig1dqqrnorg5tf1jhdqf0.apps.googleusercontent.com",
          "client_type": 3
        }
      ],
      "api_key": [
        {
          "current_key": "AIzaSyClXc-vBt4PHGq08rYFStD6RutEv3j6bhE"
        }
      ],
      "services": {
        "appinvite_service": {
          "other_platform_oauth_client": [
            {
              "client_id": "328252660508-9hkrjv2fluuig1dqqrnorg5tf1jhdqf0.apps.googleusercontent.com",
              "client_type": 3
            },
            {
              "client_id": "328252660508-0e3bdbmihvar2j77oejfn8gnh1sd7sni.apps.googleusercontent.com",
              "client_type": 2,
              "ios_info": {
                "bundle_id": "io.slamart.santamonicahair"
              }
            }
          ]
        }
      }
    },
    {
      "client_info": {
        "mobilesdk_app_id": "1:328252660508:android:ac4810026e0e56e1bb78d9",
        "android_client_info": {
          "package_name": "io.slamart.swansdiamonds"
        }
      },
      "oauth_client": [
        {
          "client_id": "328252660508-9hkrjv2fluuig1dqqrnorg5tf1jhdqf0.apps.googleusercontent.com",
          "client_type": 3
        }
      ],
      "api_key": [
        {
          "current_key": "AIzaSyClXc-vBt4PHGq08rYFStD6RutEv3j6bhE"
        }
      ],
      "services": {
        "appinvite_service": {
          "other_platform_oauth_client": [
            {
              "client_id": "328252660508-9hkrjv2fluuig1dqqrnorg5tf1jhdqf0.apps.googleusercontent.com",
              "client_type": 3
            },
            {
              "client_id": "328252660508-0e3bdbmihvar2j77oejfn8gnh1sd7sni.apps.googleusercontent.com",
              "client_type": 2,
              "ios_info": {
                "bundle_id": "io.slamart.santamonicahair"
              }
            }
          ]
        }
      }
    },
    {
      "client_info": {
        "mobilesdk_app_id": "1:328252660508:android:f4f4a03a9464b8b5bb78d9",
        "android_client_info": {
          "package_name": "io.slamart.thebarber"
        }
      },
      "oauth_client": [
        {
          "client_id": "328252660508-9hkrjv2fluuig1dqqrnorg5tf1jhdqf0.apps.googleusercontent.com",
          "client_type": 3
        }
      ],
      "api_key": [
        {
          "current_key": "AIzaSyClXc-vBt4PHGq08rYFStD6RutEv3j6bhE"
        }
      ],
      "services": {
        "appinvite_service": {
          "other_platform_oauth_client": [
            {
              "client_id": "328252660508-9hkrjv2fluuig1dqqrnorg5tf1jhdqf0.apps.googleusercontent.com",
              "client_type": 3
            },
            {
              "client_id": "328252660508-0e3bdbmihvar2j77oejfn8gnh1sd7sni.apps.googleusercontent.com",
              "client_type": 2,
              "ios_info": {
                "bundle_id": "io.slamart.santamonicahair"
              }
            }
          ]
        }
      }
    },
    {
      "client_info": {
        "mobilesdk_app_id": "1:328252660508:android:353de5d35ba518cbbb78d9",
        "android_client_info": {
          "package_name": "io.slamart.thebuzzbarbershop"
        }
      },
      "oauth_client": [
        {
          "client_id": "328252660508-9hkrjv2fluuig1dqqrnorg5tf1jhdqf0.apps.googleusercontent.com",
          "client_type": 3
        }
      ],
      "api_key": [
        {
          "current_key": "AIzaSyClXc-vBt4PHGq08rYFStD6RutEv3j6bhE"
        }
      ],
      "services": {
        "appinvite_service": {
          "other_platform_oauth_client": [
            {
              "client_id": "328252660508-9hkrjv2fluuig1dqqrnorg5tf1jhdqf0.apps.googleusercontent.com",
              "client_type": 3
            },
            {
              "client_id": "328252660508-0e3bdbmihvar2j77oejfn8gnh1sd7sni.apps.googleusercontent.com",
              "client_type": 2,
              "ios_info": {
                "bundle_id": "io.slamart.santamonicahair"
              }
            }
          ]
        }
      }
    }
  ],
  "configuration_version": "1"
}